{
"propertyFile": "https://s3-ap-southeast-2.amazonaws.com/playlearn/products/alphakm/packs/khmer_consonants_sub/_packages.json",
"propertyFilePath": "products/alphakm/packs/khmer_consonants_sub/_packages.json",
"packages":
[
	{
	"id": "khmer_consonants_sub_all",
	"label": "Sub Consonants",
	"image": {
			"imagePath": "cache/badges/khmer_consonants_sub_all.jpg",
			"url_standard": "https://s3-ap-southeast-2.amazonaws.com/playlearn/cache/badges/khmer_consonants_sub_all.jpg"
	},
	"purchaseType": "FREE",
	"propertyFile": "https://s3-ap-southeast-2.amazonaws.com/playlearn/products/alphakm/packs/khmer_consonants_sub/khmer_consonants_sub_all.json",
	"hasChildPacks": "false",
	"translations":	[
{"language": "en_us","translation": "sub consonants"},{"language": "km","translation": "អនុពយ"}	],
	"zip_audio":	[
			{"language": "en_us","url": "https://s3-ap-southeast-2.amazonaws.com/playlearn/zips/alphakm/khmer_consonants_sub_all_audio_en_us.zip"},			{"language": "km","url": "https://s3-ap-southeast-2.amazonaws.com/playlearn/zips/alphakm/khmer_consonants_sub_all_audio_km.zip"}	]
	,"zip_image": {
	}

	}
	,
	{
	"id": "khmer_consonants_sub_group1",
	"label": "Set 1",
	"image": {
			"imagePath": "cache/badges/khmer_consonants_sub_group1.jpg",
			"url_standard": "https://s3-ap-southeast-2.amazonaws.com/playlearn/cache/badges/khmer_consonants_sub_group1.jpg"
	},
	"purchaseType": "IAP",
	"propertyFile": "https://s3-ap-southeast-2.amazonaws.com/playlearn/products/alphakm/packs/khmer_consonants_sub/khmer_consonants_sub_group1.json",
	"hasChildPacks": "false",
	"translations":	[
{"language": "en_us","translation": "set 1"},{"language": "km","translation": "កំណត់ 1"}	],
	"zip_audio":	[
			{"language": "en_us","url": "https://s3-ap-southeast-2.amazonaws.com/playlearn/zips/alphakm/khmer_consonants_sub_group1_audio_en_us.zip"},			{"language": "km","url": "https://s3-ap-southeast-2.amazonaws.com/playlearn/zips/alphakm/khmer_consonants_sub_group1_audio_km.zip"}	]
	,"zip_image": {
	}

	}
	,
	{
	"id": "khmer_consonants_sub_group2",
	"label": "Set 2",
	"image": {
			"imagePath": "cache/badges/khmer_consonants_sub_group2.jpg",
			"url_standard": "https://s3-ap-southeast-2.amazonaws.com/playlearn/cache/badges/khmer_consonants_sub_group2.jpg"
	},
	"purchaseType": "IAP",
	"propertyFile": "https://s3-ap-southeast-2.amazonaws.com/playlearn/products/alphakm/packs/khmer_consonants_sub/khmer_consonants_sub_group2.json",
	"hasChildPacks": "false",
	"translations":	[
{"language": "en_us","translation": "set 2"},{"language": "km","translation": "កំណត់ 2"}	],
	"zip_audio":	[
			{"language": "en_us","url": "https://s3-ap-southeast-2.amazonaws.com/playlearn/zips/alphakm/khmer_consonants_sub_group2_audio_en_us.zip"},			{"language": "km","url": "https://s3-ap-southeast-2.amazonaws.com/playlearn/zips/alphakm/khmer_consonants_sub_group2_audio_km.zip"}	]
	,"zip_image": {
	}

	}
	,
	{
	"id": "khmer_consonants_sub_group3",
	"label": "Set 3",
	"image": {
			"imagePath": "cache/badges/khmer_consonants_sub_group3.jpg",
			"url_standard": "https://s3-ap-southeast-2.amazonaws.com/playlearn/cache/badges/khmer_consonants_sub_group3.jpg"
	},
	"purchaseType": "IAP",
	"propertyFile": "https://s3-ap-southeast-2.amazonaws.com/playlearn/products/alphakm/packs/khmer_consonants_sub/khmer_consonants_sub_group3.json",
	"hasChildPacks": "false",
	"translations":	[
{"language": "en_us","translation": "set 3"},{"language": "km","translation": "កំណត់ 3"}	],
	"zip_audio":	[
			{"language": "en_us","url": "https://s3-ap-southeast-2.amazonaws.com/playlearn/zips/alphakm/khmer_consonants_sub_group3_audio_en_us.zip"},			{"language": "km","url": "https://s3-ap-southeast-2.amazonaws.com/playlearn/zips/alphakm/khmer_consonants_sub_group3_audio_km.zip"}	]
	,"zip_image": {
	}

	}
	,
	{
	"id": "khmer_consonants_sub_group4",
	"label": "Set 4",
	"image": {
			"imagePath": "cache/badges/khmer_consonants_sub_group4.jpg",
			"url_standard": "https://s3-ap-southeast-2.amazonaws.com/playlearn/cache/badges/khmer_consonants_sub_group4.jpg"
	},
	"purchaseType": "IAP",
	"propertyFile": "https://s3-ap-southeast-2.amazonaws.com/playlearn/products/alphakm/packs/khmer_consonants_sub/khmer_consonants_sub_group4.json",
	"hasChildPacks": "false",
	"translations":	[
{"language": "en_us","translation": "set 4"},{"language": "km","translation": "កំណត់ 4"}	],
	"zip_audio":	[
			{"language": "en_us","url": "https://s3-ap-southeast-2.amazonaws.com/playlearn/zips/alphakm/khmer_consonants_sub_group4_audio_en_us.zip"},			{"language": "km","url": "https://s3-ap-southeast-2.amazonaws.com/playlearn/zips/alphakm/khmer_consonants_sub_group4_audio_km.zip"}	]
	,"zip_image": {
	}

	}
]}