{
	"id": "khmer_consonants_sub_all",
	"config": {
		"noshuffle": "true",
		"packlevel": "",
		"audio": "true",
		"cardnumbers": "false",
		"images": "false",
		"sourceLanguage": "km",
		"packtype": "alphabet_letters",
		"wordtype": "consonant_sub"
	},
	"propertyFile": "https://s3-ap-southeast-2.amazonaws.com/playlearn/products/alphakm/packs/khmer_consonants_sub/khmer_consonants_sub_all.json",
	"zip_audio":	[
			{"language": "en_us","url": "https://s3-ap-southeast-2.amazonaws.com/playlearn/zips/alphakm/khmer_consonants_sub_all_audio_en_us.zip"},			{"language": "km","url": "https://s3-ap-southeast-2.amazonaws.com/playlearn/zips/alphakm/khmer_consonants_sub_all_audio_km.zip"}	]
,	"zip_image": {
	},
	"cards": [
		{
		"id": "្ក",
		"uniqueid": "្ក",
		"cfg-between_char": "false",
		"cfg-note_char": "false",
		"image": {
		},
		"translations":
		[
				{
				"language": "en_us",
				"languageUsesArticles": "false",
				"translation": {
					"translation": "្ក",
					"audio": {
						"audioPath": "cache/audio/en_us/្ក.mp3",
						"audioFileNameInZip": "cache/audio/en_us/%E1%9F%92%E1%9E%80.mp3",
						"audioUrl": "https://s3-ap-southeast-2.amazonaws.com/playlearn/cache/audio/en_us/%E1%9F%92%E1%9E%80.mp3"
					}
				}
				}
				,
				{
				"language": "km",
				"languageUsesArticles": "false",
				"translation": {
					"translation": "្ក",
					"romanisedtranslation": "kɑɑ",
					"audio": {
						"audioPath": "cache/audio/km/្ក.mp3",
						"audioFileNameInZip": "cache/audio/km/%E1%9F%92%E1%9E%80.mp3",
						"audioUrl": "https://s3-ap-southeast-2.amazonaws.com/playlearn/cache/audio/km/%E1%9F%92%E1%9E%80.mp3"
					}
				}
				}
		]

		}
		,
		{
		"id": "្ខ",
		"uniqueid": "្ខ",
		"cfg-between_char": "false",
		"cfg-note_char": "false",
		"image": {
		},
		"translations":
		[
				{
				"language": "en_us",
				"languageUsesArticles": "false",
				"translation": {
					"translation": "្ខ",
					"audio": {
						"audioPath": "cache/audio/en_us/្ខ.mp3",
						"audioFileNameInZip": "cache/audio/en_us/%E1%9F%92%E1%9E%81.mp3",
						"audioUrl": "https://s3-ap-southeast-2.amazonaws.com/playlearn/cache/audio/en_us/%E1%9F%92%E1%9E%81.mp3"
					}
				}
				}
				,
				{
				"language": "km",
				"languageUsesArticles": "false",
				"translation": {
					"translation": "្ខ",
					"romanisedtranslation": "kʰɑɑ",
					"audio": {
						"audioPath": "cache/audio/km/្ខ.mp3",
						"audioFileNameInZip": "cache/audio/km/%E1%9F%92%E1%9E%81.mp3",
						"audioUrl": "https://s3-ap-southeast-2.amazonaws.com/playlearn/cache/audio/km/%E1%9F%92%E1%9E%81.mp3"
					}
				}
				}
		]

		}
		,
		{
		"id": "្គ",
		"uniqueid": "្គ",
		"cfg-between_char": "false",
		"cfg-note_char": "false",
		"image": {
		},
		"translations":
		[
				{
				"language": "en_us",
				"languageUsesArticles": "false",
				"translation": {
					"translation": "្គ",
					"audio": {
						"audioPath": "cache/audio/en_us/្គ.mp3",
						"audioFileNameInZip": "cache/audio/en_us/%E1%9F%92%E1%9E%82.mp3",
						"audioUrl": "https://s3-ap-southeast-2.amazonaws.com/playlearn/cache/audio/en_us/%E1%9F%92%E1%9E%82.mp3"
					}
				}
				}
				,
				{
				"language": "km",
				"languageUsesArticles": "false",
				"translation": {
					"translation": "្គ",
					"romanisedtranslation": "kɔɔ",
					"audio": {
						"audioPath": "cache/audio/km/្គ.mp3",
						"audioFileNameInZip": "cache/audio/km/%E1%9F%92%E1%9E%82.mp3",
						"audioUrl": "https://s3-ap-southeast-2.amazonaws.com/playlearn/cache/audio/km/%E1%9F%92%E1%9E%82.mp3"
					}
				}
				}
		]

		}
		,
		{
		"id": "្ឃ",
		"uniqueid": "្ឃ",
		"cfg-between_char": "false",
		"cfg-note_char": "false",
		"image": {
		},
		"translations":
		[
				{
				"language": "en_us",
				"languageUsesArticles": "false",
				"translation": {
					"translation": "្ឃ",
					"audio": {
						"audioPath": "cache/audio/en_us/្ឃ.mp3",
						"audioFileNameInZip": "cache/audio/en_us/%E1%9F%92%E1%9E%83.mp3",
						"audioUrl": "https://s3-ap-southeast-2.amazonaws.com/playlearn/cache/audio/en_us/%E1%9F%92%E1%9E%83.mp3"
					}
				}
				}
				,
				{
				"language": "km",
				"languageUsesArticles": "false",
				"translation": {
					"translation": "្ឃ",
					"romanisedtranslation": "kʰɔɔ",
					"audio": {
						"audioPath": "cache/audio/km/្ឃ.mp3",
						"audioFileNameInZip": "cache/audio/km/%E1%9F%92%E1%9E%83.mp3",
						"audioUrl": "https://s3-ap-southeast-2.amazonaws.com/playlearn/cache/audio/km/%E1%9F%92%E1%9E%83.mp3"
					}
				}
				}
		]

		}
		,
		{
		"id": "្ង",
		"uniqueid": "្ង",
		"cfg-between_char": "false",
		"cfg-note_char": "false",
		"image": {
		},
		"translations":
		[
				{
				"language": "en_us",
				"languageUsesArticles": "false",
				"translation": {
					"translation": "្ង",
					"audio": {
						"audioPath": "cache/audio/en_us/្ង.mp3",
						"audioFileNameInZip": "cache/audio/en_us/%E1%9F%92%E1%9E%84.mp3",
						"audioUrl": "https://s3-ap-southeast-2.amazonaws.com/playlearn/cache/audio/en_us/%E1%9F%92%E1%9E%84.mp3"
					}
				}
				}
				,
				{
				"language": "km",
				"languageUsesArticles": "false",
				"translation": {
					"translation": "្ង",
					"romanisedtranslation": "ŋɔɔ",
					"audio": {
						"audioPath": "cache/audio/km/្ង.mp3",
						"audioFileNameInZip": "cache/audio/km/%E1%9F%92%E1%9E%84.mp3",
						"audioUrl": "https://s3-ap-southeast-2.amazonaws.com/playlearn/cache/audio/km/%E1%9F%92%E1%9E%84.mp3"
					}
				}
				}
		]

		}
		,
		{
		"id": "្ច",
		"uniqueid": "្ច",
		"cfg-between_char": "false",
		"cfg-note_char": "false",
		"image": {
		},
		"translations":
		[
				{
				"language": "en_us",
				"languageUsesArticles": "false",
				"translation": {
					"translation": "្ច",
					"audio": {
						"audioPath": "cache/audio/en_us/្ច.mp3",
						"audioFileNameInZip": "cache/audio/en_us/%E1%9F%92%E1%9E%85.mp3",
						"audioUrl": "https://s3-ap-southeast-2.amazonaws.com/playlearn/cache/audio/en_us/%E1%9F%92%E1%9E%85.mp3"
					}
				}
				}
				,
				{
				"language": "km",
				"languageUsesArticles": "false",
				"translation": {
					"translation": "្ច",
					"romanisedtranslation": "cɑɑ",
					"audio": {
						"audioPath": "cache/audio/km/្ច.mp3",
						"audioFileNameInZip": "cache/audio/km/%E1%9F%92%E1%9E%85.mp3",
						"audioUrl": "https://s3-ap-southeast-2.amazonaws.com/playlearn/cache/audio/km/%E1%9F%92%E1%9E%85.mp3"
					}
				}
				}
		]

		}
		,
		{
		"id": "្ឆ",
		"uniqueid": "្ឆ",
		"cfg-between_char": "false",
		"cfg-note_char": "false",
		"image": {
		},
		"translations":
		[
				{
				"language": "en_us",
				"languageUsesArticles": "false",
				"translation": {
					"translation": "្ឆ",
					"audio": {
						"audioPath": "cache/audio/en_us/្ឆ.mp3",
						"audioFileNameInZip": "cache/audio/en_us/%E1%9F%92%E1%9E%86.mp3",
						"audioUrl": "https://s3-ap-southeast-2.amazonaws.com/playlearn/cache/audio/en_us/%E1%9F%92%E1%9E%86.mp3"
					}
				}
				}
				,
				{
				"language": "km",
				"languageUsesArticles": "false",
				"translation": {
					"translation": "្ឆ",
					"romanisedtranslation": "cʰɑɑ",
					"audio": {
						"audioPath": "cache/audio/km/្ឆ.mp3",
						"audioFileNameInZip": "cache/audio/km/%E1%9F%92%E1%9E%86.mp3",
						"audioUrl": "https://s3-ap-southeast-2.amazonaws.com/playlearn/cache/audio/km/%E1%9F%92%E1%9E%86.mp3"
					}
				}
				}
		]

		}
		,
		{
		"id": "្ជ",
		"uniqueid": "្ជ",
		"cfg-between_char": "false",
		"cfg-note_char": "false",
		"image": {
		},
		"translations":
		[
				{
				"language": "en_us",
				"languageUsesArticles": "false",
				"translation": {
					"translation": "្ជ",
					"audio": {
						"audioPath": "cache/audio/en_us/្ជ.mp3",
						"audioFileNameInZip": "cache/audio/en_us/%E1%9F%92%E1%9E%87.mp3",
						"audioUrl": "https://s3-ap-southeast-2.amazonaws.com/playlearn/cache/audio/en_us/%E1%9F%92%E1%9E%87.mp3"
					}
				}
				}
				,
				{
				"language": "km",
				"languageUsesArticles": "false",
				"translation": {
					"translation": "្ជ",
					"romanisedtranslation": "cɔɔ",
					"audio": {
						"audioPath": "cache/audio/km/្ជ.mp3",
						"audioFileNameInZip": "cache/audio/km/%E1%9F%92%E1%9E%87.mp3",
						"audioUrl": "https://s3-ap-southeast-2.amazonaws.com/playlearn/cache/audio/km/%E1%9F%92%E1%9E%87.mp3"
					}
				}
				}
		]

		}
		,
		{
		"id": "្ឈ",
		"uniqueid": "្ឈ",
		"cfg-between_char": "false",
		"cfg-note_char": "false",
		"image": {
		},
		"translations":
		[
				{
				"language": "en_us",
				"languageUsesArticles": "false",
				"translation": {
					"translation": "្ឈ",
					"audio": {
						"audioPath": "cache/audio/en_us/្ឈ.mp3",
						"audioFileNameInZip": "cache/audio/en_us/%E1%9F%92%E1%9E%88.mp3",
						"audioUrl": "https://s3-ap-southeast-2.amazonaws.com/playlearn/cache/audio/en_us/%E1%9F%92%E1%9E%88.mp3"
					}
				}
				}
				,
				{
				"language": "km",
				"languageUsesArticles": "false",
				"translation": {
					"translation": "្ឈ",
					"romanisedtranslation": "cʰɔɔ",
					"audio": {
						"audioPath": "cache/audio/km/្ឈ.mp3",
						"audioFileNameInZip": "cache/audio/km/%E1%9F%92%E1%9E%88.mp3",
						"audioUrl": "https://s3-ap-southeast-2.amazonaws.com/playlearn/cache/audio/km/%E1%9F%92%E1%9E%88.mp3"
					}
				}
				}
		]

		}
		,
		{
		"id": "្ញ",
		"uniqueid": "្ញ",
		"cfg-between_char": "false",
		"cfg-note_char": "false",
		"image": {
		},
		"translations":
		[
				{
				"language": "en_us",
				"languageUsesArticles": "false",
				"translation": {
					"translation": "្ញ",
					"audio": {
						"audioPath": "cache/audio/en_us/្ញ.mp3",
						"audioFileNameInZip": "cache/audio/en_us/%E1%9F%92%E1%9E%89.mp3",
						"audioUrl": "https://s3-ap-southeast-2.amazonaws.com/playlearn/cache/audio/en_us/%E1%9F%92%E1%9E%89.mp3"
					}
				}
				}
				,
				{
				"language": "km",
				"languageUsesArticles": "false",
				"translation": {
					"translation": "្ញ",
					"romanisedtranslation": "ɲɔɔ",
					"audio": {
						"audioPath": "cache/audio/km/្ញ.mp3",
						"audioFileNameInZip": "cache/audio/km/%E1%9F%92%E1%9E%89.mp3",
						"audioUrl": "https://s3-ap-southeast-2.amazonaws.com/playlearn/cache/audio/km/%E1%9F%92%E1%9E%89.mp3"
					}
				}
				}
		]

		}
		,
		{
		"id": "្ដ",
		"uniqueid": "្ដ",
		"cfg-between_char": "false",
		"cfg-note_char": "false",
		"image": {
		},
		"translations":
		[
				{
				"language": "en_us",
				"languageUsesArticles": "false",
				"translation": {
					"translation": "្ដ",
					"audio": {
						"audioPath": "cache/audio/en_us/្ដ.mp3",
						"audioFileNameInZip": "cache/audio/en_us/%E1%9F%92%E1%9E%8A.mp3",
						"audioUrl": "https://s3-ap-southeast-2.amazonaws.com/playlearn/cache/audio/en_us/%E1%9F%92%E1%9E%8A.mp3"
					}
				}
				}
				,
				{
				"language": "km",
				"languageUsesArticles": "false",
				"translation": {
					"translation": "្ដ",
					"romanisedtranslation": "dɑɑ",
					"audio": {
						"audioPath": "cache/audio/km/្ដ.mp3",
						"audioFileNameInZip": "cache/audio/km/%E1%9F%92%E1%9E%8A.mp3",
						"audioUrl": "https://s3-ap-southeast-2.amazonaws.com/playlearn/cache/audio/km/%E1%9F%92%E1%9E%8A.mp3"
					}
				}
				}
		]

		}
		,
		{
		"id": "្ឋ",
		"uniqueid": "្ឋ",
		"cfg-between_char": "false",
		"cfg-note_char": "false",
		"image": {
		},
		"translations":
		[
				{
				"language": "en_us",
				"languageUsesArticles": "false",
				"translation": {
					"translation": "្ឋ",
					"audio": {
						"audioPath": "cache/audio/en_us/្ឋ.mp3",
						"audioFileNameInZip": "cache/audio/en_us/%E1%9F%92%E1%9E%8B.mp3",
						"audioUrl": "https://s3-ap-southeast-2.amazonaws.com/playlearn/cache/audio/en_us/%E1%9F%92%E1%9E%8B.mp3"
					}
				}
				}
				,
				{
				"language": "km",
				"languageUsesArticles": "false",
				"translation": {
					"translation": "្ឋ",
					"romanisedtranslation": "tʰɑɑ",
					"audio": {
						"audioPath": "cache/audio/km/្ឋ.mp3",
						"audioFileNameInZip": "cache/audio/km/%E1%9F%92%E1%9E%8B.mp3",
						"audioUrl": "https://s3-ap-southeast-2.amazonaws.com/playlearn/cache/audio/km/%E1%9F%92%E1%9E%8B.mp3"
					}
				}
				}
		]

		}
		,
		{
		"id": "្ឌ",
		"uniqueid": "្ឌ",
		"cfg-between_char": "false",
		"cfg-note_char": "false",
		"image": {
		},
		"translations":
		[
				{
				"language": "en_us",
				"languageUsesArticles": "false",
				"translation": {
					"translation": "្ឌ",
					"audio": {
						"audioPath": "cache/audio/en_us/្ឌ.mp3",
						"audioFileNameInZip": "cache/audio/en_us/%E1%9F%92%E1%9E%8C.mp3",
						"audioUrl": "https://s3-ap-southeast-2.amazonaws.com/playlearn/cache/audio/en_us/%E1%9F%92%E1%9E%8C.mp3"
					}
				}
				}
				,
				{
				"language": "km",
				"languageUsesArticles": "false",
				"translation": {
					"translation": "្ឌ",
					"romanisedtranslation": "dɔɔ",
					"audio": {
						"audioPath": "cache/audio/km/្ឌ.mp3",
						"audioFileNameInZip": "cache/audio/km/%E1%9F%92%E1%9E%8C.mp3",
						"audioUrl": "https://s3-ap-southeast-2.amazonaws.com/playlearn/cache/audio/km/%E1%9F%92%E1%9E%8C.mp3"
					}
				}
				}
		]

		}
		,
		{
		"id": "្ឍ",
		"uniqueid": "្ឍ",
		"cfg-between_char": "false",
		"cfg-note_char": "false",
		"image": {
		},
		"translations":
		[
				{
				"language": "en_us",
				"languageUsesArticles": "false",
				"translation": {
					"translation": "្ឍ",
					"audio": {
						"audioPath": "cache/audio/en_us/្ឍ.mp3",
						"audioFileNameInZip": "cache/audio/en_us/%E1%9F%92%E1%9E%8D.mp3",
						"audioUrl": "https://s3-ap-southeast-2.amazonaws.com/playlearn/cache/audio/en_us/%E1%9F%92%E1%9E%8D.mp3"
					}
				}
				}
				,
				{
				"language": "km",
				"languageUsesArticles": "false",
				"translation": {
					"translation": "្ឍ",
					"romanisedtranslation": "tʰɔɔ",
					"audio": {
						"audioPath": "cache/audio/km/្ឍ.mp3",
						"audioFileNameInZip": "cache/audio/km/%E1%9F%92%E1%9E%8D.mp3",
						"audioUrl": "https://s3-ap-southeast-2.amazonaws.com/playlearn/cache/audio/km/%E1%9F%92%E1%9E%8D.mp3"
					}
				}
				}
		]

		}
		,
		{
		"id": "្ណ",
		"uniqueid": "្ណ",
		"cfg-between_char": "false",
		"cfg-note_char": "false",
		"image": {
		},
		"translations":
		[
				{
				"language": "en_us",
				"languageUsesArticles": "false",
				"translation": {
					"translation": "្ណ",
					"audio": {
						"audioPath": "cache/audio/en_us/្ណ.mp3",
						"audioFileNameInZip": "cache/audio/en_us/%E1%9F%92%E1%9E%8E.mp3",
						"audioUrl": "https://s3-ap-southeast-2.amazonaws.com/playlearn/cache/audio/en_us/%E1%9F%92%E1%9E%8E.mp3"
					}
				}
				}
				,
				{
				"language": "km",
				"languageUsesArticles": "false",
				"translation": {
					"translation": "្ណ",
					"romanisedtranslation": "nɑɑ",
					"audio": {
						"audioPath": "cache/audio/km/្ណ.mp3",
						"audioFileNameInZip": "cache/audio/km/%E1%9F%92%E1%9E%8E.mp3",
						"audioUrl": "https://s3-ap-southeast-2.amazonaws.com/playlearn/cache/audio/km/%E1%9F%92%E1%9E%8E.mp3"
					}
				}
				}
		]

		}
		,
		{
		"id": "្ត",
		"uniqueid": "្ត",
		"cfg-between_char": "false",
		"cfg-note_char": "false",
		"image": {
		},
		"translations":
		[
				{
				"language": "en_us",
				"languageUsesArticles": "false",
				"translation": {
					"translation": "្ត",
					"audio": {
						"audioPath": "cache/audio/en_us/្ត.mp3",
						"audioFileNameInZip": "cache/audio/en_us/%E1%9F%92%E1%9E%8F.mp3",
						"audioUrl": "https://s3-ap-southeast-2.amazonaws.com/playlearn/cache/audio/en_us/%E1%9F%92%E1%9E%8F.mp3"
					}
				}
				}
				,
				{
				"language": "km",
				"languageUsesArticles": "false",
				"translation": {
					"translation": "្ត",
					"romanisedtranslation": "tɑɑ",
					"audio": {
						"audioPath": "cache/audio/km/្ត.mp3",
						"audioFileNameInZip": "cache/audio/km/%E1%9F%92%E1%9E%8F.mp3",
						"audioUrl": "https://s3-ap-southeast-2.amazonaws.com/playlearn/cache/audio/km/%E1%9F%92%E1%9E%8F.mp3"
					}
				}
				}
		]

		}
		,
		{
		"id": "្ថ",
		"uniqueid": "្ថ",
		"cfg-between_char": "false",
		"cfg-note_char": "false",
		"image": {
		},
		"translations":
		[
				{
				"language": "en_us",
				"languageUsesArticles": "false",
				"translation": {
					"translation": "្ថ",
					"audio": {
						"audioPath": "cache/audio/en_us/្ថ.mp3",
						"audioFileNameInZip": "cache/audio/en_us/%E1%9F%92%E1%9E%90.mp3",
						"audioUrl": "https://s3-ap-southeast-2.amazonaws.com/playlearn/cache/audio/en_us/%E1%9F%92%E1%9E%90.mp3"
					}
				}
				}
				,
				{
				"language": "km",
				"languageUsesArticles": "false",
				"translation": {
					"translation": "្ថ",
					"romanisedtranslation": "tʰɑɑ",
					"audio": {
						"audioPath": "cache/audio/km/្ថ.mp3",
						"audioFileNameInZip": "cache/audio/km/%E1%9F%92%E1%9E%90.mp3",
						"audioUrl": "https://s3-ap-southeast-2.amazonaws.com/playlearn/cache/audio/km/%E1%9F%92%E1%9E%90.mp3"
					}
				}
				}
		]

		}
		,
		{
		"id": "្ទ",
		"uniqueid": "្ទ",
		"cfg-between_char": "false",
		"cfg-note_char": "false",
		"image": {
		},
		"translations":
		[
				{
				"language": "en_us",
				"languageUsesArticles": "false",
				"translation": {
					"translation": "្ទ",
					"audio": {
						"audioPath": "cache/audio/en_us/្ទ.mp3",
						"audioFileNameInZip": "cache/audio/en_us/%E1%9F%92%E1%9E%91.mp3",
						"audioUrl": "https://s3-ap-southeast-2.amazonaws.com/playlearn/cache/audio/en_us/%E1%9F%92%E1%9E%91.mp3"
					}
				}
				}
				,
				{
				"language": "km",
				"languageUsesArticles": "false",
				"translation": {
					"translation": "្ទ",
					"romanisedtranslation": "tɔɔ",
					"audio": {
						"audioPath": "cache/audio/km/្ទ.mp3",
						"audioFileNameInZip": "cache/audio/km/%E1%9F%92%E1%9E%91.mp3",
						"audioUrl": "https://s3-ap-southeast-2.amazonaws.com/playlearn/cache/audio/km/%E1%9F%92%E1%9E%91.mp3"
					}
				}
				}
		]

		}
		,
		{
		"id": "្ធ",
		"uniqueid": "្ធ",
		"cfg-between_char": "false",
		"cfg-note_char": "false",
		"image": {
		},
		"translations":
		[
				{
				"language": "en_us",
				"languageUsesArticles": "false",
				"translation": {
					"translation": "្ធ",
					"audio": {
						"audioPath": "cache/audio/en_us/្ធ.mp3",
						"audioFileNameInZip": "cache/audio/en_us/%E1%9F%92%E1%9E%92.mp3",
						"audioUrl": "https://s3-ap-southeast-2.amazonaws.com/playlearn/cache/audio/en_us/%E1%9F%92%E1%9E%92.mp3"
					}
				}
				}
				,
				{
				"language": "km",
				"languageUsesArticles": "false",
				"translation": {
					"translation": "្ធ",
					"romanisedtranslation": "tʰɔɔ",
					"audio": {
						"audioPath": "cache/audio/km/្ធ.mp3",
						"audioFileNameInZip": "cache/audio/km/%E1%9F%92%E1%9E%92.mp3",
						"audioUrl": "https://s3-ap-southeast-2.amazonaws.com/playlearn/cache/audio/km/%E1%9F%92%E1%9E%92.mp3"
					}
				}
				}
		]

		}
		,
		{
		"id": "្ន",
		"uniqueid": "្ន",
		"cfg-between_char": "false",
		"cfg-note_char": "false",
		"image": {
		},
		"translations":
		[
				{
				"language": "en_us",
				"languageUsesArticles": "false",
				"translation": {
					"translation": "្ន",
					"audio": {
						"audioPath": "cache/audio/en_us/្ន.mp3",
						"audioFileNameInZip": "cache/audio/en_us/%E1%9F%92%E1%9E%93.mp3",
						"audioUrl": "https://s3-ap-southeast-2.amazonaws.com/playlearn/cache/audio/en_us/%E1%9F%92%E1%9E%93.mp3"
					}
				}
				}
				,
				{
				"language": "km",
				"languageUsesArticles": "false",
				"translation": {
					"translation": "្ន",
					"romanisedtranslation": "nɔɔ",
					"audio": {
						"audioPath": "cache/audio/km/្ន.mp3",
						"audioFileNameInZip": "cache/audio/km/%E1%9F%92%E1%9E%93.mp3",
						"audioUrl": "https://s3-ap-southeast-2.amazonaws.com/playlearn/cache/audio/km/%E1%9F%92%E1%9E%93.mp3"
					}
				}
				}
		]

		}
		,
		{
		"id": "្ប",
		"uniqueid": "្ប",
		"cfg-between_char": "false",
		"cfg-note_char": "false",
		"image": {
		},
		"translations":
		[
				{
				"language": "en_us",
				"languageUsesArticles": "false",
				"translation": {
					"translation": "្ប",
					"audio": {
						"audioPath": "cache/audio/en_us/្ប.mp3",
						"audioFileNameInZip": "cache/audio/en_us/%E1%9F%92%E1%9E%94.mp3",
						"audioUrl": "https://s3-ap-southeast-2.amazonaws.com/playlearn/cache/audio/en_us/%E1%9F%92%E1%9E%94.mp3"
					}
				}
				}
				,
				{
				"language": "km",
				"languageUsesArticles": "false",
				"translation": {
					"translation": "្ប",
					"romanisedtranslation": "bɑɑ",
					"audio": {
						"audioPath": "cache/audio/km/្ប.mp3",
						"audioFileNameInZip": "cache/audio/km/%E1%9F%92%E1%9E%94.mp3",
						"audioUrl": "https://s3-ap-southeast-2.amazonaws.com/playlearn/cache/audio/km/%E1%9F%92%E1%9E%94.mp3"
					}
				}
				}
		]

		}
		,
		{
		"id": "្ផ",
		"uniqueid": "្ផ",
		"cfg-between_char": "false",
		"cfg-note_char": "false",
		"image": {
		},
		"translations":
		[
				{
				"language": "en_us",
				"languageUsesArticles": "false",
				"translation": {
					"translation": "្ផ",
					"audio": {
						"audioPath": "cache/audio/en_us/្ផ.mp3",
						"audioFileNameInZip": "cache/audio/en_us/%E1%9F%92%E1%9E%95.mp3",
						"audioUrl": "https://s3-ap-southeast-2.amazonaws.com/playlearn/cache/audio/en_us/%E1%9F%92%E1%9E%95.mp3"
					}
				}
				}
				,
				{
				"language": "km",
				"languageUsesArticles": "false",
				"translation": {
					"translation": "្ផ",
					"romanisedtranslation": "pʰɑɑ",
					"audio": {
						"audioPath": "cache/audio/km/្ផ.mp3",
						"audioFileNameInZip": "cache/audio/km/%E1%9F%92%E1%9E%95.mp3",
						"audioUrl": "https://s3-ap-southeast-2.amazonaws.com/playlearn/cache/audio/km/%E1%9F%92%E1%9E%95.mp3"
					}
				}
				}
		]

		}
		,
		{
		"id": "្ព",
		"uniqueid": "្ព",
		"cfg-between_char": "false",
		"cfg-note_char": "false",
		"image": {
		},
		"translations":
		[
				{
				"language": "en_us",
				"languageUsesArticles": "false",
				"translation": {
					"translation": "្ព",
					"audio": {
						"audioPath": "cache/audio/en_us/្ព.mp3",
						"audioFileNameInZip": "cache/audio/en_us/%E1%9F%92%E1%9E%96.mp3",
						"audioUrl": "https://s3-ap-southeast-2.amazonaws.com/playlearn/cache/audio/en_us/%E1%9F%92%E1%9E%96.mp3"
					}
				}
				}
				,
				{
				"language": "km",
				"languageUsesArticles": "false",
				"translation": {
					"translation": "្ព",
					"romanisedtranslation": "pɔɔ",
					"audio": {
						"audioPath": "cache/audio/km/្ព.mp3",
						"audioFileNameInZip": "cache/audio/km/%E1%9F%92%E1%9E%96.mp3",
						"audioUrl": "https://s3-ap-southeast-2.amazonaws.com/playlearn/cache/audio/km/%E1%9F%92%E1%9E%96.mp3"
					}
				}
				}
		]

		}
		,
		{
		"id": "្ភ",
		"uniqueid": "្ភ",
		"cfg-between_char": "false",
		"cfg-note_char": "false",
		"image": {
		},
		"translations":
		[
				{
				"language": "en_us",
				"languageUsesArticles": "false",
				"translation": {
					"translation": "្ភ",
					"audio": {
						"audioPath": "cache/audio/en_us/្ភ.mp3",
						"audioFileNameInZip": "cache/audio/en_us/%E1%9F%92%E1%9E%97.mp3",
						"audioUrl": "https://s3-ap-southeast-2.amazonaws.com/playlearn/cache/audio/en_us/%E1%9F%92%E1%9E%97.mp3"
					}
				}
				}
				,
				{
				"language": "km",
				"languageUsesArticles": "false",
				"translation": {
					"translation": "្ភ",
					"romanisedtranslation": "pʰɔɔ",
					"audio": {
						"audioPath": "cache/audio/km/្ភ.mp3",
						"audioFileNameInZip": "cache/audio/km/%E1%9F%92%E1%9E%97.mp3",
						"audioUrl": "https://s3-ap-southeast-2.amazonaws.com/playlearn/cache/audio/km/%E1%9F%92%E1%9E%97.mp3"
					}
				}
				}
		]

		}
		,
		{
		"id": "្ម",
		"uniqueid": "្ម",
		"cfg-between_char": "false",
		"cfg-note_char": "false",
		"image": {
		},
		"translations":
		[
				{
				"language": "en_us",
				"languageUsesArticles": "false",
				"translation": {
					"translation": "្ម",
					"audio": {
						"audioPath": "cache/audio/en_us/្ម.mp3",
						"audioFileNameInZip": "cache/audio/en_us/%E1%9F%92%E1%9E%98.mp3",
						"audioUrl": "https://s3-ap-southeast-2.amazonaws.com/playlearn/cache/audio/en_us/%E1%9F%92%E1%9E%98.mp3"
					}
				}
				}
				,
				{
				"language": "km",
				"languageUsesArticles": "false",
				"translation": {
					"translation": "្ម",
					"romanisedtranslation": "mɔɔ",
					"audio": {
						"audioPath": "cache/audio/km/្ម.mp3",
						"audioFileNameInZip": "cache/audio/km/%E1%9F%92%E1%9E%98.mp3",
						"audioUrl": "https://s3-ap-southeast-2.amazonaws.com/playlearn/cache/audio/km/%E1%9F%92%E1%9E%98.mp3"
					}
				}
				}
		]

		}
		,
		{
		"id": "្យ",
		"uniqueid": "្យ",
		"cfg-between_char": "false",
		"cfg-note_char": "false",
		"image": {
		},
		"translations":
		[
				{
				"language": "en_us",
				"languageUsesArticles": "false",
				"translation": {
					"translation": "្យ",
					"audio": {
						"audioPath": "cache/audio/en_us/្យ.mp3",
						"audioFileNameInZip": "cache/audio/en_us/%E1%9F%92%E1%9E%99.mp3",
						"audioUrl": "https://s3-ap-southeast-2.amazonaws.com/playlearn/cache/audio/en_us/%E1%9F%92%E1%9E%99.mp3"
					}
				}
				}
				,
				{
				"language": "km",
				"languageUsesArticles": "false",
				"translation": {
					"translation": "្យ",
					"romanisedtranslation": "yɔɔ",
					"audio": {
						"audioPath": "cache/audio/km/្យ.mp3",
						"audioFileNameInZip": "cache/audio/km/%E1%9F%92%E1%9E%99.mp3",
						"audioUrl": "https://s3-ap-southeast-2.amazonaws.com/playlearn/cache/audio/km/%E1%9F%92%E1%9E%99.mp3"
					}
				}
				}
		]

		}
		,
		{
		"id": "្រ",
		"uniqueid": "្រ",
		"cfg-between_char": "false",
		"cfg-note_char": "false",
		"image": {
		},
		"translations":
		[
				{
				"language": "en_us",
				"languageUsesArticles": "false",
				"translation": {
					"translation": "្រ",
					"audio": {
						"audioPath": "cache/audio/en_us/្រ.mp3",
						"audioFileNameInZip": "cache/audio/en_us/%E1%9F%92%E1%9E%9A.mp3",
						"audioUrl": "https://s3-ap-southeast-2.amazonaws.com/playlearn/cache/audio/en_us/%E1%9F%92%E1%9E%9A.mp3"
					}
				}
				}
				,
				{
				"language": "km",
				"languageUsesArticles": "false",
				"translation": {
					"translation": "្រ",
					"romanisedtranslation": "rɔɔ",
					"audio": {
						"audioPath": "cache/audio/km/្រ.mp3",
						"audioFileNameInZip": "cache/audio/km/%E1%9F%92%E1%9E%9A.mp3",
						"audioUrl": "https://s3-ap-southeast-2.amazonaws.com/playlearn/cache/audio/km/%E1%9F%92%E1%9E%9A.mp3"
					}
				}
				}
		]

		}
		,
		{
		"id": "្ល",
		"uniqueid": "្ល",
		"cfg-between_char": "false",
		"cfg-note_char": "false",
		"image": {
		},
		"translations":
		[
				{
				"language": "en_us",
				"languageUsesArticles": "false",
				"translation": {
					"translation": "្ល",
					"audio": {
						"audioPath": "cache/audio/en_us/្ល.mp3",
						"audioFileNameInZip": "cache/audio/en_us/%E1%9F%92%E1%9E%9B.mp3",
						"audioUrl": "https://s3-ap-southeast-2.amazonaws.com/playlearn/cache/audio/en_us/%E1%9F%92%E1%9E%9B.mp3"
					}
				}
				}
				,
				{
				"language": "km",
				"languageUsesArticles": "false",
				"translation": {
					"translation": "្ល",
					"romanisedtranslation": "lɔɔ",
					"audio": {
						"audioPath": "cache/audio/km/្ល.mp3",
						"audioFileNameInZip": "cache/audio/km/%E1%9F%92%E1%9E%9B.mp3",
						"audioUrl": "https://s3-ap-southeast-2.amazonaws.com/playlearn/cache/audio/km/%E1%9F%92%E1%9E%9B.mp3"
					}
				}
				}
		]

		}
		,
		{
		"id": "្វ",
		"uniqueid": "្វ",
		"cfg-between_char": "false",
		"cfg-note_char": "false",
		"image": {
		},
		"translations":
		[
				{
				"language": "en_us",
				"languageUsesArticles": "false",
				"translation": {
					"translation": "្វ",
					"audio": {
						"audioPath": "cache/audio/en_us/្វ.mp3",
						"audioFileNameInZip": "cache/audio/en_us/%E1%9F%92%E1%9E%9C.mp3",
						"audioUrl": "https://s3-ap-southeast-2.amazonaws.com/playlearn/cache/audio/en_us/%E1%9F%92%E1%9E%9C.mp3"
					}
				}
				}
				,
				{
				"language": "km",
				"languageUsesArticles": "false",
				"translation": {
					"translation": "្វ",
					"romanisedtranslation": "vɔɔ",
					"audio": {
						"audioPath": "cache/audio/km/្វ.mp3",
						"audioFileNameInZip": "cache/audio/km/%E1%9F%92%E1%9E%9C.mp3",
						"audioUrl": "https://s3-ap-southeast-2.amazonaws.com/playlearn/cache/audio/km/%E1%9F%92%E1%9E%9C.mp3"
					}
				}
				}
		]

		}
		,
		{
		"id": "្ស",
		"uniqueid": "្ស",
		"cfg-between_char": "false",
		"cfg-note_char": "false",
		"image": {
		},
		"translations":
		[
				{
				"language": "en_us",
				"languageUsesArticles": "false",
				"translation": {
					"translation": "្ស",
					"audio": {
						"audioPath": "cache/audio/en_us/្ស.mp3",
						"audioFileNameInZip": "cache/audio/en_us/%E1%9F%92%E1%9E%9F.mp3",
						"audioUrl": "https://s3-ap-southeast-2.amazonaws.com/playlearn/cache/audio/en_us/%E1%9F%92%E1%9E%9F.mp3"
					}
				}
				}
				,
				{
				"language": "km",
				"languageUsesArticles": "false",
				"translation": {
					"translation": "្ស",
					"romanisedtranslation": "sɑɑ",
					"audio": {
						"audioPath": "cache/audio/km/្ស.mp3",
						"audioFileNameInZip": "cache/audio/km/%E1%9F%92%E1%9E%9F.mp3",
						"audioUrl": "https://s3-ap-southeast-2.amazonaws.com/playlearn/cache/audio/km/%E1%9F%92%E1%9E%9F.mp3"
					}
				}
				}
		]

		}
		,
		{
		"id": "្ហ",
		"uniqueid": "្ហ",
		"cfg-between_char": "false",
		"cfg-note_char": "false",
		"image": {
		},
		"translations":
		[
				{
				"language": "en_us",
				"languageUsesArticles": "false",
				"translation": {
					"translation": "្ហ",
					"audio": {
						"audioPath": "cache/audio/en_us/្ហ.mp3",
						"audioFileNameInZip": "cache/audio/en_us/%E1%9F%92%E1%9E%A0.mp3",
						"audioUrl": "https://s3-ap-southeast-2.amazonaws.com/playlearn/cache/audio/en_us/%E1%9F%92%E1%9E%A0.mp3"
					}
				}
				}
				,
				{
				"language": "km",
				"languageUsesArticles": "false",
				"translation": {
					"translation": "្ហ",
					"romanisedtranslation": "haa",
					"audio": {
						"audioPath": "cache/audio/km/្ហ.mp3",
						"audioFileNameInZip": "cache/audio/km/%E1%9F%92%E1%9E%A0.mp3",
						"audioUrl": "https://s3-ap-southeast-2.amazonaws.com/playlearn/cache/audio/km/%E1%9F%92%E1%9E%A0.mp3"
					}
				}
				}
		]

		}
		,
		{
		"id": "្អ",
		"uniqueid": "្អ",
		"cfg-between_char": "false",
		"cfg-note_char": "false",
		"image": {
		},
		"translations":
		[
				{
				"language": "en_us",
				"languageUsesArticles": "false",
				"translation": {
					"translation": "្អ",
					"audio": {
						"audioPath": "cache/audio/en_us/្អ.mp3",
						"audioFileNameInZip": "cache/audio/en_us/%E1%9F%92%E1%9E%A2.mp3",
						"audioUrl": "https://s3-ap-southeast-2.amazonaws.com/playlearn/cache/audio/en_us/%E1%9F%92%E1%9E%A2.mp3"
					}
				}
				}
				,
				{
				"language": "km",
				"languageUsesArticles": "false",
				"translation": {
					"translation": "្អ",
					"romanisedtranslation": "ʔɑɑ",
					"audio": {
						"audioPath": "cache/audio/km/្អ.mp3",
						"audioFileNameInZip": "cache/audio/km/%E1%9F%92%E1%9E%A2.mp3",
						"audioUrl": "https://s3-ap-southeast-2.amazonaws.com/playlearn/cache/audio/km/%E1%9F%92%E1%9E%A2.mp3"
					}
				}
				}
		]

		}
	]
}