{
	"id": "khmer_punctuation",
	"config": {
		"noshuffle": "true",
		"packlevel": "",
		"audio": "false",
		"disabledmodes": "_quiz;memory",
		"cardnumbers": "false",
		"images": "false",
		"sourceLanguage": "km",
		"packtype": "notes",
		"wordtype": ""
	},
	"propertyFile": "https://s3-ap-southeast-2.amazonaws.com/playlearn/products/alphakm/packs/khmer_punctuation.json",
	"zip_audio":	[
	]
,	"zip_image": {
	},
	"cards": [
		{
		"id": "note_khmer_script_punct_1",
		"uniqueid": "note_khmer_script_punct_1",
		"cfg-between_char": "false",
		"cfg-note_char": "true",
		"image": {
		},
		"translations":
		[
				{
				"language": "en_us",
				"languageUsesArticles": "false",
				"translation": {
					"translation": "",
				}
				,
				"definitions_short": {
					"translation": "Spacing and punctuation",
					"embeddedAudios": [
				]
				}
				,
				"definitions_long": {
					"translation": "Spaces are not used between words in written Khmer. Spaces are used within sentences in roughly the same places as commas might be in English, although they may also serve to set off certain items such as numbers and proper names.",
					"embeddedAudios": [
				]
				}
				}
				,
				{
				"language": "km",
				"languageUsesArticles": "false",
				"translation": {
					"translation": "",
					"romanisedtranslation": "",
				}
				,
				"definitions_short": {
					"translation": "Spacing and punctuation",
					"embeddedAudios": [
				]
				}
				,
				"definitions_long": {
					"translation": "Spaces are not used between words in written Khmer. Spaces are used within sentences in roughly the same places as commas might be in English, although they may also serve to set off certain items such as numbers and proper names.",
					"embeddedAudios": [
				]
				}
				}
		]

		}
		,
		{
		"id": "note_khmer_script_punct_2",
		"uniqueid": "note_khmer_script_punct_2",
		"cfg-between_char": "false",
		"cfg-note_char": "true",
		"image": {
		},
		"translations":
		[
				{
				"language": "en_us",
				"languageUsesArticles": "false",
				"translation": {
					"translation": "",
				}
				,
				"definitions_short": {
					"translation": "",
					"embeddedAudios": [
				]
				}
				,
				"definitions_long": {
					"translation": "Western-style punctuation marks are quite commonly used in modern Khmer writing, including French-style guillemets for quotation marks. However, traditional Khmer punctuation marks are also used.",
					"embeddedAudios": [
				]
				}
				}
				,
				{
				"language": "km",
				"languageUsesArticles": "false",
				"translation": {
					"translation": "",
					"romanisedtranslation": "",
				}
				,
				"definitions_short": {
					"translation": "",
					"embeddedAudios": [
				]
				}
				,
				"definitions_long": {
					"translation": "Western-style punctuation marks are quite commonly used in modern Khmer writing, including French-style guillemets for quotation marks. However, traditional Khmer punctuation marks are also used.",
					"embeddedAudios": [
				]
				}
				}
		]

		}
		,
		{
		"id": "។",
		"uniqueid": "។",
		"cfg-between_char": "false",
		"cfg-note_char": "true",
		"image": {
		},
		"translations":
		[
				{
				"language": "en_us",
				"languageUsesArticles": "false",
				"translation": {
					"translation": "។",
				}
				,
				"definitions_short": {
					"translation": "ណ្ឌ",
					"embeddedAudios": [
				]
				}
				,
				"definitions_long": {
					"translation": "Used as a period (the sign resembles an eighth rest in music writing). However, consecutive sentences on the same theme are often separated only by spaces.",
					"embeddedAudios": [
				]
				}
				}
				,
				{
				"language": "km",
				"languageUsesArticles": "false",
				"translation": {
					"translation": "។",
					"romanisedtranslation": "",
				}
				,
				"definitions_short": {
					"translation": "ខណ្ឌ",
					"embeddedAudios": [
				]
				}
				,
				"definitions_long": {
					"translation": "Used as a period (the sign resembles an eighth rest in music writing). However, consecutive sentences on the same theme are often separated only by spaces.",
					"embeddedAudios": [
				]
				}
				}
		]

		}
		,
		{
		"id": "៘",
		"uniqueid": "៘",
		"cfg-between_char": "false",
		"cfg-note_char": "true",
		"image": {
		},
		"translations":
		[
				{
				"language": "en_us",
				"languageUsesArticles": "false",
				"translation": {
					"translation": "៘",
				}
				,
				"definitions_short": {
					"translation": "ល៉ៈ",
					"embeddedAudios": [
				]
				}
				,
				"definitions_long": {
					"translation": "Equivalent to etc.",
					"embeddedAudios": [
				]
				}
				}
				,
				{
				"language": "km",
				"languageUsesArticles": "false",
				"translation": {
					"translation": "៘",
					"romanisedtranslation": "",
				}
				,
				"definitions_short": {
					"translation": "ល៉ៈ",
					"embeddedAudios": [
				]
				}
				,
				"definitions_long": {
					"translation": "Equivalent to etc.",
					"embeddedAudios": [
				]
				}
				}
		]

		}
		,
		{
		"id": "ៗ",
		"uniqueid": "ៗ",
		"cfg-between_char": "false",
		"cfg-note_char": "true",
		"image": {
		},
		"translations":
		[
				{
				"language": "en_us",
				"languageUsesArticles": "false",
				"translation": {
					"translation": "ៗ",
				}
				,
				"definitions_short": {
					"translation": "លេខទោ",
					"embeddedAudios": [
				]
				}
				,
				"definitions_long": {
					"translation": "Indicates that the preceding word or phrase is to be duplicated which is a common feature in Khmer syntax e.g. <sound loc='km' rom='true' tran='true'>តូច</sound> becomes <sound loc='km' rom='true' tran='true'>តូចៗ</sound> and <sound loc='km' rom='true' tran='true'>ក្មេង</sound> becomes <sound loc='km' rom='true' tran='true'>ក្មេងៗ</sound>.",
					"embeddedAudios": [
						{
						"key": "ក្មេងៗ",
						"romanisedtranslation": "kmeɛŋ kmeɛŋ",
						"translation": "children",
						"audioPath": "cache/audio/km/ក្មេងៗ.mp3",
						"audioFileNameInZip": "cache/audio/km/%E1%9E%80%E1%9F%92%E1%9E%98%E1%9F%81%E1%9E%84%E1%9F%97.mp3",
						"audioUrl": "https://s3-ap-southeast-2.amazonaws.com/playlearn/cache/audio/km/%E1%9E%80%E1%9F%92%E1%9E%98%E1%9F%81%E1%9E%84%E1%9F%97.mp3"
						}
						,{
						"key": "ក្មេង",
						"romanisedtranslation": "kmeɛŋ",
						"translation": "young",
						"audioPath": "cache/audio/km/ក្មេង.mp3",
						"audioFileNameInZip": "cache/audio/km/%E1%9E%80%E1%9F%92%E1%9E%98%E1%9F%81%E1%9E%84.mp3",
						"audioUrl": "https://s3-ap-southeast-2.amazonaws.com/playlearn/cache/audio/km/%E1%9E%80%E1%9F%92%E1%9E%98%E1%9F%81%E1%9E%84.mp3"
						}
						,{
						"key": "តូចៗ",
						"romanisedtranslation": "tooc tooc",
						"translation": "very small",
						"audioPath": "cache/audio/km/តូចៗ.mp3",
						"audioFileNameInZip": "cache/audio/km/%E1%9E%8F%E1%9E%BC%E1%9E%85%E1%9F%97.mp3",
						"audioUrl": "https://s3-ap-southeast-2.amazonaws.com/playlearn/cache/audio/km/%E1%9E%8F%E1%9E%BC%E1%9E%85%E1%9F%97.mp3"
						}
						,{
						"key": "តូច",
						"romanisedtranslation": "tooc",
						"translation": "small",
						"audioPath": "cache/audio/km/តូច.mp3",
						"audioFileNameInZip": "cache/audio/km/%E1%9E%8F%E1%9E%BC%E1%9E%85.mp3",
						"audioUrl": "https://s3-ap-southeast-2.amazonaws.com/playlearn/cache/audio/km/%E1%9E%8F%E1%9E%BC%E1%9E%85.mp3"
						}
				]
				}
				}
				,
				{
				"language": "km",
				"languageUsesArticles": "false",
				"translation": {
					"translation": "ៗ",
					"romanisedtranslation": "",
				}
				,
				"definitions_short": {
					"translation": "លេខទោ",
					"embeddedAudios": [
				]
				}
				,
				"definitions_long": {
					"translation": "Indicates that the preceding word or phrase is to be duplicated which is a common feature in Khmer syntax e.g. <sound loc='km' rom='true' tran='true'>តូច</sound> becomes <sound loc='km' rom='true' tran='true'>តូចៗ</sound> and <sound loc='km' rom='true' tran='true'>ក្មេង</sound> becomes <sound loc='km' rom='true' tran='true'>ក្មេងៗ</sound>.",
					"embeddedAudios": [
						{
						"key": "ក្មេងៗ",
						"romanisedtranslation": "kmeɛŋ kmeɛŋ",
						"translation": "ក្មេងៗ",
						"audioPath": "cache/audio/km/ក្មេងៗ.mp3",
						"audioFileNameInZip": "cache/audio/km/%E1%9E%80%E1%9F%92%E1%9E%98%E1%9F%81%E1%9E%84%E1%9F%97.mp3",
						"audioUrl": "https://s3-ap-southeast-2.amazonaws.com/playlearn/cache/audio/km/%E1%9E%80%E1%9F%92%E1%9E%98%E1%9F%81%E1%9E%84%E1%9F%97.mp3"
						}
						,{
						"key": "ក្មេង",
						"romanisedtranslation": "kmeɛŋ",
						"translation": "ក្មេង",
						"audioPath": "cache/audio/km/ក្មេង.mp3",
						"audioFileNameInZip": "cache/audio/km/%E1%9E%80%E1%9F%92%E1%9E%98%E1%9F%81%E1%9E%84.mp3",
						"audioUrl": "https://s3-ap-southeast-2.amazonaws.com/playlearn/cache/audio/km/%E1%9E%80%E1%9F%92%E1%9E%98%E1%9F%81%E1%9E%84.mp3"
						}
						,{
						"key": "តូចៗ",
						"romanisedtranslation": "tooc tooc",
						"translation": "តូចៗ",
						"audioPath": "cache/audio/km/តូចៗ.mp3",
						"audioFileNameInZip": "cache/audio/km/%E1%9E%8F%E1%9E%BC%E1%9E%85%E1%9F%97.mp3",
						"audioUrl": "https://s3-ap-southeast-2.amazonaws.com/playlearn/cache/audio/km/%E1%9E%8F%E1%9E%BC%E1%9E%85%E1%9F%97.mp3"
						}
						,{
						"key": "តូច",
						"romanisedtranslation": "tooc",
						"translation": "តូច",
						"audioPath": "cache/audio/km/តូច.mp3",
						"audioFileNameInZip": "cache/audio/km/%E1%9E%8F%E1%9E%BC%E1%9E%85.mp3",
						"audioUrl": "https://s3-ap-southeast-2.amazonaws.com/playlearn/cache/audio/km/%E1%9E%8F%E1%9E%BC%E1%9E%85.mp3"
						}
				]
				}
				}
		]

		}
		,
		{
		"id": "៕",
		"uniqueid": "៕",
		"cfg-between_char": "false",
		"cfg-note_char": "true",
		"image": {
		},
		"translations":
		[
				{
				"language": "en_us",
				"languageUsesArticles": "false",
				"translation": {
					"translation": "៕",
				}
				,
				"definitions_short": {
					"translation": "បរិយោសាន",
					"embeddedAudios": [
				]
				}
				,
				"definitions_long": {
					"translation": "A period used to end an entire text or a chapter.",
					"embeddedAudios": [
				]
				}
				}
				,
				{
				"language": "km",
				"languageUsesArticles": "false",
				"translation": {
					"translation": "៕",
					"romanisedtranslation": "",
				}
				,
				"definitions_short": {
					"translation": "បរិយោសាន",
					"embeddedAudios": [
				]
				}
				,
				"definitions_long": {
					"translation": "A period used to end an entire text or a chapter.",
					"embeddedAudios": [
				]
				}
				}
		]

		}
		,
		{
		"id": "៚",
		"uniqueid": "៚",
		"cfg-between_char": "false",
		"cfg-note_char": "true",
		"image": {
		},
		"translations":
		[
				{
				"language": "en_us",
				"languageUsesArticles": "false",
				"translation": {
					"translation": "៚",
				}
				,
				"definitions_short": {
					"translation": "គោមូត្រ",
					"embeddedAudios": [
				]
				}
				,
				"definitions_long": {
					"translation": "A period used at the end of poetic or religious texts.",
					"embeddedAudios": [
				]
				}
				}
				,
				{
				"language": "km",
				"languageUsesArticles": "false",
				"translation": {
					"translation": "៚",
					"romanisedtranslation": "",
				}
				,
				"definitions_short": {
					"translation": "គោមូត្រ",
					"embeddedAudios": [
				]
				}
				,
				"definitions_long": {
					"translation": "A period used at the end of poetic or religious texts.",
					"embeddedAudios": [
				]
				}
				}
		]

		}
		,
		{
		"id": "៙",
		"uniqueid": "៙",
		"cfg-between_char": "false",
		"cfg-note_char": "true",
		"image": {
		},
		"translations":
		[
				{
				"language": "en_us",
				"languageUsesArticles": "false",
				"translation": {
					"translation": "៙",
				}
				,
				"definitions_short": {
					"translation": "ភ្នែកមាន់",
					"embeddedAudios": [
				]
				}
				,
				"definitions_long": {
					"translation": "A symbol (said to represent the elephant trunk of Ganesha) used at the start of poetic or religious texts.",
					"embeddedAudios": [
				]
				}
				}
				,
				{
				"language": "km",
				"languageUsesArticles": "false",
				"translation": {
					"translation": "៙",
					"romanisedtranslation": "",
				}
				,
				"definitions_short": {
					"translation": "ភ្នែកមាន់",
					"embeddedAudios": [
				]
				}
				,
				"definitions_long": {
					"translation": "A symbol (said to represent the elephant trunk of Ganesha) used at the start of poetic or religious texts.",
					"embeddedAudios": [
				]
				}
				}
		]

		}
		,
		{
		"id": "៖",
		"uniqueid": "៖",
		"cfg-between_char": "false",
		"cfg-note_char": "true",
		"image": {
		},
		"translations":
		[
				{
				"language": "en_us",
				"languageUsesArticles": "false",
				"translation": {
					"translation": "៖",
				}
				,
				"definitions_short": {
					"translation": "ចំណុចពីរគូស",
					"embeddedAudios": [
				]
				}
				,
				"definitions_long": {
					"translation": "Used similarly to a colon. (The middle line distinguishes this sign from a diacritic.)",
					"embeddedAudios": [
				]
				}
				}
				,
				{
				"language": "km",
				"languageUsesArticles": "false",
				"translation": {
					"translation": "៖",
					"romanisedtranslation": "",
				}
				,
				"definitions_short": {
					"translation": "ចំណុចពីរគូស",
					"embeddedAudios": [
				]
				}
				,
				"definitions_long": {
					"translation": "Used similarly to a colon. (The middle line distinguishes this sign from a diacritic.)",
					"embeddedAudios": [
				]
				}
				}
		]

		}
	]
}