{
	"id": "khmer_vowels_dependant_consonantpractise_group3",
	"config": {
		"noshuffle": "false",
		"packlevel": "",
		"audio": "true",
		"cardnumbers": "false",
		"images": "false",
		"sourceLanguage": "km",
		"packtype": "alphabet_letters",
		"wordtype": "vowel_dependant"
	},
	"propertyFile": "https://s3-ap-southeast-2.amazonaws.com/playlearn/products/alphakm/packs/khmer_vowels/khmer_vowels_dependant_consonantpractise_group3.json",
	"zip_audio":	[
			{"language": "en_us","url": "https://s3-ap-southeast-2.amazonaws.com/playlearn/zips/alphakm/khmer_vowels_dependant_consonantpractise_group3_audio_en_us.zip"},			{"language": "km","url": "https://s3-ap-southeast-2.amazonaws.com/playlearn/zips/alphakm/khmer_vowels_dependant_consonantpractise_group3_audio_km.zip"}	]
,	"zip_image": {
	},
	"cards": [
		{
		"id": "កុំ",
		"uniqueid": "កុំ",
		"cfg-between_char": "false",
		"cfg-note_char": "false",
		"image": {
		},
		"translations":
		[
				{
				"language": "en_us",
				"languageUsesArticles": "false",
				"translation": {
					"translation": "កុំ",
					"audio": {
						"audioPath": "cache/audio/en_us/កុំ.mp3",
						"audioFileNameInZip": "cache/audio/en_us/%E1%9E%80%E1%9E%BB%E1%9F%86.mp3",
						"audioUrl": "https://s3-ap-southeast-2.amazonaws.com/playlearn/cache/audio/en_us/%E1%9E%80%E1%9E%BB%E1%9F%86.mp3"
					}
				}
				}
				,
				{
				"language": "km",
				"languageUsesArticles": "false",
				"translation": {
					"translation": "កុំ",
					"romanisedtranslation": "kom",
					"audio": {
						"audioPath": "cache/audio/km/កុំ.mp3",
						"audioFileNameInZip": "cache/audio/km/%E1%9E%80%E1%9E%BB%E1%9F%86.mp3",
						"audioUrl": "https://s3-ap-southeast-2.amazonaws.com/playlearn/cache/audio/km/%E1%9E%80%E1%9E%BB%E1%9F%86.mp3"
					}
				}
				}
		]

		}
		,
		{
		"id": "កុះ",
		"uniqueid": "កុះ",
		"cfg-between_char": "false",
		"cfg-note_char": "false",
		"image": {
		},
		"translations":
		[
				{
				"language": "en_us",
				"languageUsesArticles": "false",
				"translation": {
					"translation": "កុះ",
					"audio": {
						"audioPath": "cache/audio/en_us/កុះ.mp3",
						"audioFileNameInZip": "cache/audio/en_us/%E1%9E%80%E1%9E%BB%E1%9F%87.mp3",
						"audioUrl": "https://s3-ap-southeast-2.amazonaws.com/playlearn/cache/audio/en_us/%E1%9E%80%E1%9E%BB%E1%9F%87.mp3"
					}
				}
				}
				,
				{
				"language": "km",
				"languageUsesArticles": "false",
				"translation": {
					"translation": "កុះ",
					"romanisedtranslation": "koh",
					"audio": {
						"audioPath": "cache/audio/km/កុះ.mp3",
						"audioFileNameInZip": "cache/audio/km/%E1%9E%80%E1%9E%BB%E1%9F%87.mp3",
						"audioUrl": "https://s3-ap-southeast-2.amazonaws.com/playlearn/cache/audio/km/%E1%9E%80%E1%9E%BB%E1%9F%87.mp3"
					}
				}
				}
		]

		}
		,
		{
		"id": "កេះ",
		"uniqueid": "កេះ",
		"cfg-between_char": "false",
		"cfg-note_char": "false",
		"image": {
		},
		"translations":
		[
				{
				"language": "en_us",
				"languageUsesArticles": "false",
				"translation": {
					"translation": "កេះ",
					"audio": {
						"audioPath": "cache/audio/en_us/កេះ.mp3",
						"audioFileNameInZip": "cache/audio/en_us/%E1%9E%80%E1%9F%81%E1%9F%87.mp3",
						"audioUrl": "https://s3-ap-southeast-2.amazonaws.com/playlearn/cache/audio/en_us/%E1%9E%80%E1%9F%81%E1%9F%87.mp3"
					}
				}
				}
				,
				{
				"language": "km",
				"languageUsesArticles": "false",
				"translation": {
					"translation": "កេះ",
					"romanisedtranslation": "keh",
					"audio": {
						"audioPath": "cache/audio/km/កេះ.mp3",
						"audioFileNameInZip": "cache/audio/km/%E1%9E%80%E1%9F%81%E1%9F%87.mp3",
						"audioUrl": "https://s3-ap-southeast-2.amazonaws.com/playlearn/cache/audio/km/%E1%9E%80%E1%9F%81%E1%9F%87.mp3"
					}
				}
				}
		]

		}
		,
		{
		"id": "កោះ",
		"uniqueid": "កោះ",
		"cfg-between_char": "false",
		"cfg-note_char": "false",
		"image": {
		},
		"translations":
		[
				{
				"language": "en_us",
				"languageUsesArticles": "false",
				"translation": {
					"translation": "កោះ",
					"audio": {
						"audioPath": "cache/audio/en_us/កោះ.mp3",
						"audioFileNameInZip": "cache/audio/en_us/%E1%9E%80%E1%9F%84%E1%9F%87.mp3",
						"audioUrl": "https://s3-ap-southeast-2.amazonaws.com/playlearn/cache/audio/en_us/%E1%9E%80%E1%9F%84%E1%9F%87.mp3"
					}
				}
				}
				,
				{
				"language": "km",
				"languageUsesArticles": "false",
				"translation": {
					"translation": "កោះ",
					"romanisedtranslation": "kah",
					"audio": {
						"audioPath": "cache/audio/km/កោះ.mp3",
						"audioFileNameInZip": "cache/audio/km/%E1%9E%80%E1%9F%84%E1%9F%87.mp3",
						"audioUrl": "https://s3-ap-southeast-2.amazonaws.com/playlearn/cache/audio/km/%E1%9E%80%E1%9F%84%E1%9F%87.mp3"
					}
				}
				}
		]

		}
		,
		{
		"id": "ខាំ",
		"uniqueid": "ខាំ",
		"cfg-between_char": "false",
		"cfg-note_char": "false",
		"image": {
		},
		"translations":
		[
				{
				"language": "en_us",
				"languageUsesArticles": "false",
				"translation": {
					"translation": "ខាំ",
					"audio": {
						"audioPath": "cache/audio/en_us/ខាំ.mp3",
						"audioFileNameInZip": "cache/audio/en_us/%E1%9E%81%E1%9E%B6%E1%9F%86.mp3",
						"audioUrl": "https://s3-ap-southeast-2.amazonaws.com/playlearn/cache/audio/en_us/%E1%9E%81%E1%9E%B6%E1%9F%86.mp3"
					}
				}
				}
				,
				{
				"language": "km",
				"languageUsesArticles": "false",
				"translation": {
					"translation": "ខាំ",
					"romanisedtranslation": "kʰam",
					"audio": {
						"audioPath": "cache/audio/km/ខាំ.mp3",
						"audioFileNameInZip": "cache/audio/km/%E1%9E%81%E1%9E%B6%E1%9F%86.mp3",
						"audioUrl": "https://s3-ap-southeast-2.amazonaws.com/playlearn/cache/audio/km/%E1%9E%81%E1%9E%B6%E1%9F%86.mp3"
					}
				}
				}
		]

		}
		,
		{
		"id": "ខំ",
		"uniqueid": "ខំ",
		"cfg-between_char": "false",
		"cfg-note_char": "false",
		"image": {
		},
		"translations":
		[
				{
				"language": "en_us",
				"languageUsesArticles": "false",
				"translation": {
					"translation": "ខំ",
					"audio": {
						"audioPath": "cache/audio/en_us/ខំ.mp3",
						"audioFileNameInZip": "cache/audio/en_us/%E1%9E%81%E1%9F%86.mp3",
						"audioUrl": "https://s3-ap-southeast-2.amazonaws.com/playlearn/cache/audio/en_us/%E1%9E%81%E1%9F%86.mp3"
					}
				}
				}
				,
				{
				"language": "km",
				"languageUsesArticles": "false",
				"translation": {
					"translation": "ខំ",
					"romanisedtranslation": "kʰam",
					"audio": {
						"audioPath": "cache/audio/km/ខំ.mp3",
						"audioFileNameInZip": "cache/audio/km/%E1%9E%81%E1%9F%86.mp3",
						"audioUrl": "https://s3-ap-southeast-2.amazonaws.com/playlearn/cache/audio/km/%E1%9E%81%E1%9F%86.mp3"
					}
				}
				}
		]

		}
		,
		{
		"id": "ខះ",
		"uniqueid": "ខះ",
		"cfg-between_char": "false",
		"cfg-note_char": "false",
		"image": {
		},
		"translations":
		[
				{
				"language": "en_us",
				"languageUsesArticles": "false",
				"translation": {
					"translation": "ខះ",
					"audio": {
						"audioPath": "cache/audio/en_us/ខះ.mp3",
						"audioFileNameInZip": "cache/audio/en_us/%E1%9E%81%E1%9F%87.mp3",
						"audioUrl": "https://s3-ap-southeast-2.amazonaws.com/playlearn/cache/audio/en_us/%E1%9E%81%E1%9F%87.mp3"
					}
				}
				}
				,
				{
				"language": "km",
				"languageUsesArticles": "false",
				"translation": {
					"translation": "ខះ",
					"romanisedtranslation": "kʰah",
					"audio": {
						"audioPath": "cache/audio/km/ខះ.mp3",
						"audioFileNameInZip": "cache/audio/km/%E1%9E%81%E1%9F%87.mp3",
						"audioUrl": "https://s3-ap-southeast-2.amazonaws.com/playlearn/cache/audio/km/%E1%9E%81%E1%9F%87.mp3"
					}
				}
				}
		]

		}
		,
		{
		"id": "ឃុំ",
		"uniqueid": "ឃុំ",
		"cfg-between_char": "false",
		"cfg-note_char": "false",
		"image": {
		},
		"translations":
		[
				{
				"language": "en_us",
				"languageUsesArticles": "false",
				"translation": {
					"translation": "ឃុំ",
					"audio": {
						"audioPath": "cache/audio/en_us/ឃុំ.mp3",
						"audioFileNameInZip": "cache/audio/en_us/%E1%9E%83%E1%9E%BB%E1%9F%86.mp3",
						"audioUrl": "https://s3-ap-southeast-2.amazonaws.com/playlearn/cache/audio/en_us/%E1%9E%83%E1%9E%BB%E1%9F%86.mp3"
					}
				}
				}
				,
				{
				"language": "km",
				"languageUsesArticles": "false",
				"translation": {
					"translation": "ឃុំ",
					"romanisedtranslation": "kʰum",
					"audio": {
						"audioPath": "cache/audio/km/ឃុំ.mp3",
						"audioFileNameInZip": "cache/audio/km/%E1%9E%83%E1%9E%BB%E1%9F%86.mp3",
						"audioUrl": "https://s3-ap-southeast-2.amazonaws.com/playlearn/cache/audio/km/%E1%9E%83%E1%9E%BB%E1%9F%86.mp3"
					}
				}
				}
		]

		}
		,
		{
		"id": "ឃំ",
		"uniqueid": "ឃំ",
		"cfg-between_char": "false",
		"cfg-note_char": "false",
		"image": {
		},
		"translations":
		[
				{
				"language": "en_us",
				"languageUsesArticles": "false",
				"translation": {
					"translation": "ឃំ",
					"audio": {
						"audioPath": "cache/audio/en_us/ឃំ.mp3",
						"audioFileNameInZip": "cache/audio/en_us/%E1%9E%83%E1%9F%86.mp3",
						"audioUrl": "https://s3-ap-southeast-2.amazonaws.com/playlearn/cache/audio/en_us/%E1%9E%83%E1%9F%86.mp3"
					}
				}
				}
				,
				{
				"language": "km",
				"languageUsesArticles": "false",
				"translation": {
					"translation": "ឃំ",
					"romanisedtranslation": "kʰum",
					"audio": {
						"audioPath": "cache/audio/km/ឃំ.mp3",
						"audioFileNameInZip": "cache/audio/km/%E1%9E%83%E1%9F%86.mp3",
						"audioUrl": "https://s3-ap-southeast-2.amazonaws.com/playlearn/cache/audio/km/%E1%9E%83%E1%9F%86.mp3"
					}
				}
				}
		]

		}
		,
		{
		"id": "ចាំ",
		"uniqueid": "ចាំ",
		"cfg-between_char": "false",
		"cfg-note_char": "false",
		"image": {
		},
		"translations":
		[
				{
				"language": "en_us",
				"languageUsesArticles": "false",
				"translation": {
					"translation": "ចាំ",
					"audio": {
						"audioPath": "cache/audio/en_us/ចាំ.mp3",
						"audioFileNameInZip": "cache/audio/en_us/%E1%9E%85%E1%9E%B6%E1%9F%86.mp3",
						"audioUrl": "https://s3-ap-southeast-2.amazonaws.com/playlearn/cache/audio/en_us/%E1%9E%85%E1%9E%B6%E1%9F%86.mp3"
					}
				}
				}
				,
				{
				"language": "km",
				"languageUsesArticles": "false",
				"translation": {
					"translation": "ចាំ",
					"romanisedtranslation": "cam",
					"audio": {
						"audioPath": "cache/audio/km/ចាំ.mp3",
						"audioFileNameInZip": "cache/audio/km/%E1%9E%85%E1%9E%B6%E1%9F%86.mp3",
						"audioUrl": "https://s3-ap-southeast-2.amazonaws.com/playlearn/cache/audio/km/%E1%9E%85%E1%9E%B6%E1%9F%86.mp3"
					}
				}
				}
		]

		}
		,
		{
		"id": "ចេះ",
		"uniqueid": "ចេះ",
		"cfg-between_char": "false",
		"cfg-note_char": "false",
		"image": {
		},
		"translations":
		[
				{
				"language": "en_us",
				"languageUsesArticles": "false",
				"translation": {
					"translation": "ចេះ",
					"audio": {
						"audioPath": "cache/audio/en_us/ចេះ.mp3",
						"audioFileNameInZip": "cache/audio/en_us/%E1%9E%85%E1%9F%81%E1%9F%87.mp3",
						"audioUrl": "https://s3-ap-southeast-2.amazonaws.com/playlearn/cache/audio/en_us/%E1%9E%85%E1%9F%81%E1%9F%87.mp3"
					}
				}
				}
				,
				{
				"language": "km",
				"languageUsesArticles": "false",
				"translation": {
					"translation": "ចេះ",
					"romanisedtranslation": "ceh",
					"audio": {
						"audioPath": "cache/audio/km/ចេះ.mp3",
						"audioFileNameInZip": "cache/audio/km/%E1%9E%85%E1%9F%81%E1%9F%87.mp3",
						"audioUrl": "https://s3-ap-southeast-2.amazonaws.com/playlearn/cache/audio/km/%E1%9E%85%E1%9F%81%E1%9F%87.mp3"
					}
				}
				}
		]

		}
		,
		{
		"id": "ចោះ",
		"uniqueid": "ចោះ",
		"cfg-between_char": "false",
		"cfg-note_char": "false",
		"image": {
		},
		"translations":
		[
				{
				"language": "en_us",
				"languageUsesArticles": "false",
				"translation": {
					"translation": "ចោះ",
					"audio": {
						"audioPath": "cache/audio/en_us/ចោះ.mp3",
						"audioFileNameInZip": "cache/audio/en_us/%E1%9E%85%E1%9F%84%E1%9F%87.mp3",
						"audioUrl": "https://s3-ap-southeast-2.amazonaws.com/playlearn/cache/audio/en_us/%E1%9E%85%E1%9F%84%E1%9F%87.mp3"
					}
				}
				}
				,
				{
				"language": "km",
				"languageUsesArticles": "false",
				"translation": {
					"translation": "ចោះ",
					"romanisedtranslation": "cah",
					"audio": {
						"audioPath": "cache/audio/km/ចោះ.mp3",
						"audioFileNameInZip": "cache/audio/km/%E1%9E%85%E1%9F%84%E1%9F%87.mp3",
						"audioUrl": "https://s3-ap-southeast-2.amazonaws.com/playlearn/cache/audio/km/%E1%9E%85%E1%9F%84%E1%9F%87.mp3"
					}
				}
				}
		]

		}
		,
		{
		"id": "ចំ",
		"uniqueid": "ចំ",
		"cfg-between_char": "false",
		"cfg-note_char": "false",
		"image": {
		},
		"translations":
		[
				{
				"language": "en_us",
				"languageUsesArticles": "false",
				"translation": {
					"translation": "ចំ",
					"audio": {
						"audioPath": "cache/audio/en_us/ចំ.mp3",
						"audioFileNameInZip": "cache/audio/en_us/%E1%9E%85%E1%9F%86.mp3",
						"audioUrl": "https://s3-ap-southeast-2.amazonaws.com/playlearn/cache/audio/en_us/%E1%9E%85%E1%9F%86.mp3"
					}
				}
				}
				,
				{
				"language": "km",
				"languageUsesArticles": "false",
				"translation": {
					"translation": "ចំ",
					"romanisedtranslation": "cam",
					"audio": {
						"audioPath": "cache/audio/km/ចំ.mp3",
						"audioFileNameInZip": "cache/audio/km/%E1%9E%85%E1%9F%86.mp3",
						"audioUrl": "https://s3-ap-southeast-2.amazonaws.com/playlearn/cache/audio/km/%E1%9E%85%E1%9F%86.mp3"
					}
				}
				}
		]

		}
		,
		{
		"id": "ឆេះ",
		"uniqueid": "ឆេះ",
		"cfg-between_char": "false",
		"cfg-note_char": "false",
		"image": {
		},
		"translations":
		[
				{
				"language": "en_us",
				"languageUsesArticles": "false",
				"translation": {
					"translation": "ឆេះ",
					"audio": {
						"audioPath": "cache/audio/en_us/ឆេះ.mp3",
						"audioFileNameInZip": "cache/audio/en_us/%E1%9E%86%E1%9F%81%E1%9F%87.mp3",
						"audioUrl": "https://s3-ap-southeast-2.amazonaws.com/playlearn/cache/audio/en_us/%E1%9E%86%E1%9F%81%E1%9F%87.mp3"
					}
				}
				}
				,
				{
				"language": "km",
				"languageUsesArticles": "false",
				"translation": {
					"translation": "ឆេះ",
					"romanisedtranslation": "cʰeh",
					"audio": {
						"audioPath": "cache/audio/km/ឆេះ.mp3",
						"audioFileNameInZip": "cache/audio/km/%E1%9E%86%E1%9F%81%E1%9F%87.mp3",
						"audioUrl": "https://s3-ap-southeast-2.amazonaws.com/playlearn/cache/audio/km/%E1%9E%86%E1%9F%81%E1%9F%87.mp3"
					}
				}
				}
		]

		}
		,
		{
		"id": "ជិះ",
		"uniqueid": "ជិះ",
		"cfg-between_char": "false",
		"cfg-note_char": "false",
		"image": {
		},
		"translations":
		[
				{
				"language": "en_us",
				"languageUsesArticles": "false",
				"translation": {
					"translation": "ជិះ",
					"audio": {
						"audioPath": "cache/audio/en_us/ជិះ.mp3",
						"audioFileNameInZip": "cache/audio/en_us/%E1%9E%87%E1%9E%B7%E1%9F%87.mp3",
						"audioUrl": "https://s3-ap-southeast-2.amazonaws.com/playlearn/cache/audio/en_us/%E1%9E%87%E1%9E%B7%E1%9F%87.mp3"
					}
				}
				}
				,
				{
				"language": "km",
				"languageUsesArticles": "false",
				"translation": {
					"translation": "ជិះ",
					"romanisedtranslation": "cih",
					"audio": {
						"audioPath": "cache/audio/km/ជិះ.mp3",
						"audioFileNameInZip": "cache/audio/km/%E1%9E%87%E1%9E%B7%E1%9F%87.mp3",
						"audioUrl": "https://s3-ap-southeast-2.amazonaws.com/playlearn/cache/audio/km/%E1%9E%87%E1%9E%B7%E1%9F%87.mp3"
					}
				}
				}
		]

		}
		,
		{
		"id": "ជុះ",
		"uniqueid": "ជុះ",
		"cfg-between_char": "false",
		"cfg-note_char": "false",
		"image": {
		},
		"translations":
		[
				{
				"language": "en_us",
				"languageUsesArticles": "false",
				"translation": {
					"translation": "ជុះ",
					"audio": {
						"audioPath": "cache/audio/en_us/ជុះ.mp3",
						"audioFileNameInZip": "cache/audio/en_us/%E1%9E%87%E1%9E%BB%E1%9F%87.mp3",
						"audioUrl": "https://s3-ap-southeast-2.amazonaws.com/playlearn/cache/audio/en_us/%E1%9E%87%E1%9E%BB%E1%9F%87.mp3"
					}
				}
				}
				,
				{
				"language": "km",
				"languageUsesArticles": "false",
				"translation": {
					"translation": "ជុះ",
					"romanisedtranslation": "cuh",
					"audio": {
						"audioPath": "cache/audio/km/ជុះ.mp3",
						"audioFileNameInZip": "cache/audio/km/%E1%9E%87%E1%9E%BB%E1%9F%87.mp3",
						"audioUrl": "https://s3-ap-southeast-2.amazonaws.com/playlearn/cache/audio/km/%E1%9E%87%E1%9E%BB%E1%9F%87.mp3"
					}
				}
				}
		]

		}
		,
		{
		"id": "ឈុះ",
		"uniqueid": "ឈុះ",
		"cfg-between_char": "false",
		"cfg-note_char": "false",
		"image": {
		},
		"translations":
		[
				{
				"language": "en_us",
				"languageUsesArticles": "false",
				"translation": {
					"translation": "ឈុះ",
					"audio": {
						"audioPath": "cache/audio/en_us/ឈុះ.mp3",
						"audioFileNameInZip": "cache/audio/en_us/%E1%9E%88%E1%9E%BB%E1%9F%87.mp3",
						"audioUrl": "https://s3-ap-southeast-2.amazonaws.com/playlearn/cache/audio/en_us/%E1%9E%88%E1%9E%BB%E1%9F%87.mp3"
					}
				}
				}
				,
				{
				"language": "km",
				"languageUsesArticles": "false",
				"translation": {
					"translation": "ឈុះ",
					"romanisedtranslation": "cʰuh",
					"audio": {
						"audioPath": "cache/audio/km/ឈុះ.mp3",
						"audioFileNameInZip": "cache/audio/km/%E1%9E%88%E1%9E%BB%E1%9F%87.mp3",
						"audioUrl": "https://s3-ap-southeast-2.amazonaws.com/playlearn/cache/audio/km/%E1%9E%88%E1%9E%BB%E1%9F%87.mp3"
					}
				}
				}
		]

		}
		,
		{
		"id": "ដាំ",
		"uniqueid": "ដាំ",
		"cfg-between_char": "false",
		"cfg-note_char": "false",
		"image": {
		},
		"translations":
		[
				{
				"language": "en_us",
				"languageUsesArticles": "false",
				"translation": {
					"translation": "ដាំ",
					"audio": {
						"audioPath": "cache/audio/en_us/ដាំ.mp3",
						"audioFileNameInZip": "cache/audio/en_us/%E1%9E%8A%E1%9E%B6%E1%9F%86.mp3",
						"audioUrl": "https://s3-ap-southeast-2.amazonaws.com/playlearn/cache/audio/en_us/%E1%9E%8A%E1%9E%B6%E1%9F%86.mp3"
					}
				}
				}
				,
				{
				"language": "km",
				"languageUsesArticles": "false",
				"translation": {
					"translation": "ដាំ",
					"romanisedtranslation": "dam",
					"audio": {
						"audioPath": "cache/audio/km/ដាំ.mp3",
						"audioFileNameInZip": "cache/audio/km/%E1%9E%8A%E1%9E%B6%E1%9F%86.mp3",
						"audioUrl": "https://s3-ap-southeast-2.amazonaws.com/playlearn/cache/audio/km/%E1%9E%8A%E1%9E%B6%E1%9F%86.mp3"
					}
				}
				}
		]

		}
		,
		{
		"id": "ដោះ",
		"uniqueid": "ដោះ",
		"cfg-between_char": "false",
		"cfg-note_char": "false",
		"image": {
		},
		"translations":
		[
				{
				"language": "en_us",
				"languageUsesArticles": "false",
				"translation": {
					"translation": "ដោះ",
					"audio": {
						"audioPath": "cache/audio/en_us/ដោះ.mp3",
						"audioFileNameInZip": "cache/audio/en_us/%E1%9E%8A%E1%9F%84%E1%9F%87.mp3",
						"audioUrl": "https://s3-ap-southeast-2.amazonaws.com/playlearn/cache/audio/en_us/%E1%9E%8A%E1%9F%84%E1%9F%87.mp3"
					}
				}
				}
				,
				{
				"language": "km",
				"languageUsesArticles": "false",
				"translation": {
					"translation": "ដោះ",
					"romanisedtranslation": "dah",
					"audio": {
						"audioPath": "cache/audio/km/ដោះ.mp3",
						"audioFileNameInZip": "cache/audio/km/%E1%9E%8A%E1%9F%84%E1%9F%87.mp3",
						"audioUrl": "https://s3-ap-southeast-2.amazonaws.com/playlearn/cache/audio/km/%E1%9E%8A%E1%9F%84%E1%9F%87.mp3"
					}
				}
				}
		]

		}
		,
		{
		"id": "ដំ",
		"uniqueid": "ដំ",
		"cfg-between_char": "false",
		"cfg-note_char": "false",
		"image": {
		},
		"translations":
		[
				{
				"language": "en_us",
				"languageUsesArticles": "false",
				"translation": {
					"translation": "ដំ",
					"audio": {
						"audioPath": "cache/audio/en_us/ដំ.mp3",
						"audioFileNameInZip": "cache/audio/en_us/%E1%9E%8A%E1%9F%86.mp3",
						"audioUrl": "https://s3-ap-southeast-2.amazonaws.com/playlearn/cache/audio/en_us/%E1%9E%8A%E1%9F%86.mp3"
					}
				}
				}
				,
				{
				"language": "km",
				"languageUsesArticles": "false",
				"translation": {
					"translation": "ដំ",
					"romanisedtranslation": "dam",
					"audio": {
						"audioPath": "cache/audio/km/ដំ.mp3",
						"audioFileNameInZip": "cache/audio/km/%E1%9E%8A%E1%9F%86.mp3",
						"audioUrl": "https://s3-ap-southeast-2.amazonaws.com/playlearn/cache/audio/km/%E1%9E%8A%E1%9F%86.mp3"
					}
				}
				}
		]

		}
		,
		{
		"id": "ណាំ",
		"uniqueid": "ណាំ",
		"cfg-between_char": "false",
		"cfg-note_char": "false",
		"image": {
		},
		"translations":
		[
				{
				"language": "en_us",
				"languageUsesArticles": "false",
				"translation": {
					"translation": "ណាំ",
					"audio": {
						"audioPath": "cache/audio/en_us/ណាំ.mp3",
						"audioFileNameInZip": "cache/audio/en_us/%E1%9E%8E%E1%9E%B6%E1%9F%86.mp3",
						"audioUrl": "https://s3-ap-southeast-2.amazonaws.com/playlearn/cache/audio/en_us/%E1%9E%8E%E1%9E%B6%E1%9F%86.mp3"
					}
				}
				}
				,
				{
				"language": "km",
				"languageUsesArticles": "false",
				"translation": {
					"translation": "ណាំ",
					"romanisedtranslation": "nam",
					"audio": {
						"audioPath": "cache/audio/km/ណាំ.mp3",
						"audioFileNameInZip": "cache/audio/km/%E1%9E%8E%E1%9E%B6%E1%9F%86.mp3",
						"audioUrl": "https://s3-ap-southeast-2.amazonaws.com/playlearn/cache/audio/km/%E1%9E%8E%E1%9E%B6%E1%9F%86.mp3"
					}
				}
				}
		]

		}
		,
		{
		"id": "តោះ",
		"uniqueid": "តោះ",
		"cfg-between_char": "false",
		"cfg-note_char": "false",
		"image": {
		},
		"translations":
		[
				{
				"language": "en_us",
				"languageUsesArticles": "false",
				"translation": {
					"translation": "តោះ",
					"audio": {
						"audioPath": "cache/audio/en_us/តោះ.mp3",
						"audioFileNameInZip": "cache/audio/en_us/%E1%9E%8F%E1%9F%84%E1%9F%87.mp3",
						"audioUrl": "https://s3-ap-southeast-2.amazonaws.com/playlearn/cache/audio/en_us/%E1%9E%8F%E1%9F%84%E1%9F%87.mp3"
					}
				}
				}
				,
				{
				"language": "km",
				"languageUsesArticles": "false",
				"translation": {
					"translation": "តោះ",
					"romanisedtranslation": "tah",
					"audio": {
						"audioPath": "cache/audio/km/តោះ.mp3",
						"audioFileNameInZip": "cache/audio/km/%E1%9E%8F%E1%9F%84%E1%9F%87.mp3",
						"audioUrl": "https://s3-ap-southeast-2.amazonaws.com/playlearn/cache/audio/km/%E1%9E%8F%E1%9F%84%E1%9F%87.mp3"
					}
				}
				}
		]

		}
		,
		{
		"id": "ថះ",
		"uniqueid": "ថះ",
		"cfg-between_char": "false",
		"cfg-note_char": "false",
		"image": {
		},
		"translations":
		[
				{
				"language": "en_us",
				"languageUsesArticles": "false",
				"translation": {
					"translation": "ថះ",
					"audio": {
						"audioPath": "cache/audio/en_us/ថះ.mp3",
						"audioFileNameInZip": "cache/audio/en_us/%E1%9E%90%E1%9F%87.mp3",
						"audioUrl": "https://s3-ap-southeast-2.amazonaws.com/playlearn/cache/audio/en_us/%E1%9E%90%E1%9F%87.mp3"
					}
				}
				}
				,
				{
				"language": "km",
				"languageUsesArticles": "false",
				"translation": {
					"translation": "ថះ",
					"romanisedtranslation": "tʰah",
					"audio": {
						"audioPath": "cache/audio/km/ថះ.mp3",
						"audioFileNameInZip": "cache/audio/km/%E1%9E%90%E1%9F%87.mp3",
						"audioUrl": "https://s3-ap-southeast-2.amazonaws.com/playlearn/cache/audio/km/%E1%9E%90%E1%9F%87.mp3"
					}
				}
				}
		]

		}
		,
		{
		"id": "ធុំ",
		"uniqueid": "ធុំ",
		"cfg-between_char": "false",
		"cfg-note_char": "false",
		"image": {
		},
		"translations":
		[
				{
				"language": "en_us",
				"languageUsesArticles": "false",
				"translation": {
					"translation": "ធុំ",
					"audio": {
						"audioPath": "cache/audio/en_us/ធុំ.mp3",
						"audioFileNameInZip": "cache/audio/en_us/%E1%9E%92%E1%9E%BB%E1%9F%86.mp3",
						"audioUrl": "https://s3-ap-southeast-2.amazonaws.com/playlearn/cache/audio/en_us/%E1%9E%92%E1%9E%BB%E1%9F%86.mp3"
					}
				}
				}
				,
				{
				"language": "km",
				"languageUsesArticles": "false",
				"translation": {
					"translation": "ធុំ",
					"romanisedtranslation": "tʰum",
					"audio": {
						"audioPath": "cache/audio/km/ធុំ.mp3",
						"audioFileNameInZip": "cache/audio/km/%E1%9E%92%E1%9E%BB%E1%9F%86.mp3",
						"audioUrl": "https://s3-ap-southeast-2.amazonaws.com/playlearn/cache/audio/km/%E1%9E%92%E1%9E%BB%E1%9F%86.mp3"
					}
				}
				}
		]

		}
		,
		{
		"id": "ធុំ",
		"uniqueid": "ធុំ1472115034814",
		"cfg-between_char": "false",
		"cfg-note_char": "false",
		"image": {
		},
		"translations":
		[
				{
				"language": "en_us",
				"languageUsesArticles": "false",
				"translation": {
					"translation": "ធុំ",
					"audio": {
						"audioPath": "cache/audio/en_us/ធុំ.mp3",
						"audioFileNameInZip": "cache/audio/en_us/%E1%9E%92%E1%9E%BB%E1%9F%86.mp3",
						"audioUrl": "https://s3-ap-southeast-2.amazonaws.com/playlearn/cache/audio/en_us/%E1%9E%92%E1%9E%BB%E1%9F%86.mp3"
					}
				}
				}
				,
				{
				"language": "km",
				"languageUsesArticles": "false",
				"translation": {
					"translation": "ធុំ",
					"romanisedtranslation": "tʰum",
					"audio": {
						"audioPath": "cache/audio/km/ធុំ.mp3",
						"audioFileNameInZip": "cache/audio/km/%E1%9E%92%E1%9E%BB%E1%9F%86.mp3",
						"audioUrl": "https://s3-ap-southeast-2.amazonaws.com/playlearn/cache/audio/km/%E1%9E%92%E1%9E%BB%E1%9F%86.mp3"
					}
				}
				}
		]

		}
		,
		{
		"id": "នុះ",
		"uniqueid": "នុះ",
		"cfg-between_char": "false",
		"cfg-note_char": "false",
		"image": {
		},
		"translations":
		[
				{
				"language": "en_us",
				"languageUsesArticles": "false",
				"translation": {
					"translation": "នុះ",
					"audio": {
						"audioPath": "cache/audio/en_us/នុះ.mp3",
						"audioFileNameInZip": "cache/audio/en_us/%E1%9E%93%E1%9E%BB%E1%9F%87.mp3",
						"audioUrl": "https://s3-ap-southeast-2.amazonaws.com/playlearn/cache/audio/en_us/%E1%9E%93%E1%9E%BB%E1%9F%87.mp3"
					}
				}
				}
				,
				{
				"language": "km",
				"languageUsesArticles": "false",
				"translation": {
					"translation": "នុះ",
					"romanisedtranslation": "nuh",
					"audio": {
						"audioPath": "cache/audio/km/នុះ.mp3",
						"audioFileNameInZip": "cache/audio/km/%E1%9E%93%E1%9E%BB%E1%9F%87.mp3",
						"audioUrl": "https://s3-ap-southeast-2.amazonaws.com/playlearn/cache/audio/km/%E1%9E%93%E1%9E%BB%E1%9F%87.mp3"
					}
				}
				}
		]

		}
		,
		{
		"id": "នំ",
		"uniqueid": "នំ",
		"cfg-between_char": "false",
		"cfg-note_char": "false",
		"image": {
		},
		"translations":
		[
				{
				"language": "en_us",
				"languageUsesArticles": "false",
				"translation": {
					"translation": "នំ",
					"audio": {
						"audioPath": "cache/audio/en_us/នំ.mp3",
						"audioFileNameInZip": "cache/audio/en_us/%E1%9E%93%E1%9F%86.mp3",
						"audioUrl": "https://s3-ap-southeast-2.amazonaws.com/playlearn/cache/audio/en_us/%E1%9E%93%E1%9F%86.mp3"
					}
				}
				}
				,
				{
				"language": "km",
				"languageUsesArticles": "false",
				"translation": {
					"translation": "នំ",
					"romanisedtranslation": "num",
					"audio": {
						"audioPath": "cache/audio/km/នំ.mp3",
						"audioFileNameInZip": "cache/audio/km/%E1%9E%93%E1%9F%86.mp3",
						"audioUrl": "https://s3-ap-southeast-2.amazonaws.com/playlearn/cache/audio/km/%E1%9E%93%E1%9F%86.mp3"
					}
				}
				}
		]

		}
		,
		{
		"id": "បេះ",
		"uniqueid": "បេះ",
		"cfg-between_char": "false",
		"cfg-note_char": "false",
		"image": {
		},
		"translations":
		[
				{
				"language": "en_us",
				"languageUsesArticles": "false",
				"translation": {
					"translation": "បេះ",
					"audio": {
						"audioPath": "cache/audio/en_us/បេះ.mp3",
						"audioFileNameInZip": "cache/audio/en_us/%E1%9E%94%E1%9F%81%E1%9F%87.mp3",
						"audioUrl": "https://s3-ap-southeast-2.amazonaws.com/playlearn/cache/audio/en_us/%E1%9E%94%E1%9F%81%E1%9F%87.mp3"
					}
				}
				}
				,
				{
				"language": "km",
				"languageUsesArticles": "false",
				"translation": {
					"translation": "បេះ",
					"romanisedtranslation": "beh",
					"audio": {
						"audioPath": "cache/audio/km/បេះ.mp3",
						"audioFileNameInZip": "cache/audio/km/%E1%9E%94%E1%9F%81%E1%9F%87.mp3",
						"audioUrl": "https://s3-ap-southeast-2.amazonaws.com/playlearn/cache/audio/km/%E1%9E%94%E1%9F%81%E1%9F%87.mp3"
					}
				}
				}
		]

		}
		,
		{
		"id": "បះ",
		"uniqueid": "បះ",
		"cfg-between_char": "false",
		"cfg-note_char": "false",
		"image": {
		},
		"translations":
		[
				{
				"language": "en_us",
				"languageUsesArticles": "false",
				"translation": {
					"translation": "បះ",
					"audio": {
						"audioPath": "cache/audio/en_us/បះ.mp3",
						"audioFileNameInZip": "cache/audio/en_us/%E1%9E%94%E1%9F%87.mp3",
						"audioUrl": "https://s3-ap-southeast-2.amazonaws.com/playlearn/cache/audio/en_us/%E1%9E%94%E1%9F%87.mp3"
					}
				}
				}
				,
				{
				"language": "km",
				"languageUsesArticles": "false",
				"translation": {
					"translation": "បះ",
					"romanisedtranslation": "bah",
					"audio": {
						"audioPath": "cache/audio/km/បះ.mp3",
						"audioFileNameInZip": "cache/audio/km/%E1%9E%94%E1%9F%87.mp3",
						"audioUrl": "https://s3-ap-southeast-2.amazonaws.com/playlearn/cache/audio/km/%E1%9E%94%E1%9F%87.mp3"
					}
				}
				}
		]

		}
		,
		{
		"id": "ផេះ",
		"uniqueid": "ផេះ",
		"cfg-between_char": "false",
		"cfg-note_char": "false",
		"image": {
		},
		"translations":
		[
				{
				"language": "en_us",
				"languageUsesArticles": "false",
				"translation": {
					"translation": "ផេះ",
					"audio": {
						"audioPath": "cache/audio/en_us/ផេះ.mp3",
						"audioFileNameInZip": "cache/audio/en_us/%E1%9E%95%E1%9F%81%E1%9F%87.mp3",
						"audioUrl": "https://s3-ap-southeast-2.amazonaws.com/playlearn/cache/audio/en_us/%E1%9E%95%E1%9F%81%E1%9F%87.mp3"
					}
				}
				}
				,
				{
				"language": "km",
				"languageUsesArticles": "false",
				"translation": {
					"translation": "ផេះ",
					"romanisedtranslation": "pʰeh",
					"audio": {
						"audioPath": "cache/audio/km/ផេះ.mp3",
						"audioFileNameInZip": "cache/audio/km/%E1%9E%95%E1%9F%81%E1%9F%87.mp3",
						"audioUrl": "https://s3-ap-southeast-2.amazonaws.com/playlearn/cache/audio/km/%E1%9E%95%E1%9F%81%E1%9F%87.mp3"
					}
				}
				}
		]

		}
		,
		{
		"id": "ពោះ",
		"uniqueid": "ពោះ",
		"cfg-between_char": "false",
		"cfg-note_char": "false",
		"image": {
		},
		"translations":
		[
				{
				"language": "en_us",
				"languageUsesArticles": "false",
				"translation": {
					"translation": "ពោះ",
					"audio": {
						"audioPath": "cache/audio/en_us/ពោះ.mp3",
						"audioFileNameInZip": "cache/audio/en_us/%E1%9E%96%E1%9F%84%E1%9F%87.mp3",
						"audioUrl": "https://s3-ap-southeast-2.amazonaws.com/playlearn/cache/audio/en_us/%E1%9E%96%E1%9F%84%E1%9F%87.mp3"
					}
				}
				}
				,
				{
				"language": "km",
				"languageUsesArticles": "false",
				"translation": {
					"translation": "ពោះ",
					"romanisedtranslation": "pʊəh",
					"audio": {
						"audioPath": "cache/audio/km/ពោះ.mp3",
						"audioFileNameInZip": "cache/audio/km/%E1%9E%96%E1%9F%84%E1%9F%87.mp3",
						"audioUrl": "https://s3-ap-southeast-2.amazonaws.com/playlearn/cache/audio/km/%E1%9E%96%E1%9F%84%E1%9F%87.mp3"
					}
				}
				}
		]

		}
		,
		{
		"id": "យំ",
		"uniqueid": "យំ",
		"cfg-between_char": "false",
		"cfg-note_char": "false",
		"image": {
		},
		"translations":
		[
				{
				"language": "en_us",
				"languageUsesArticles": "false",
				"translation": {
					"translation": "យំ",
					"audio": {
						"audioPath": "cache/audio/en_us/យំ.mp3",
						"audioFileNameInZip": "cache/audio/en_us/%E1%9E%99%E1%9F%86.mp3",
						"audioUrl": "https://s3-ap-southeast-2.amazonaws.com/playlearn/cache/audio/en_us/%E1%9E%99%E1%9F%86.mp3"
					}
				}
				}
				,
				{
				"language": "km",
				"languageUsesArticles": "false",
				"translation": {
					"translation": "យំ",
					"romanisedtranslation": "yum",
					"audio": {
						"audioPath": "cache/audio/km/យំ.mp3",
						"audioFileNameInZip": "cache/audio/km/%E1%9E%99%E1%9F%86.mp3",
						"audioUrl": "https://s3-ap-southeast-2.amazonaws.com/playlearn/cache/audio/km/%E1%9E%99%E1%9F%86.mp3"
					}
				}
				}
		]

		}
		,
		{
		"id": "យះ",
		"uniqueid": "យះ",
		"cfg-between_char": "false",
		"cfg-note_char": "false",
		"image": {
		},
		"translations":
		[
				{
				"language": "en_us",
				"languageUsesArticles": "false",
				"translation": {
					"translation": "យះ",
					"audio": {
						"audioPath": "cache/audio/en_us/យះ.mp3",
						"audioFileNameInZip": "cache/audio/en_us/%E1%9E%99%E1%9F%87.mp3",
						"audioUrl": "https://s3-ap-southeast-2.amazonaws.com/playlearn/cache/audio/en_us/%E1%9E%99%E1%9F%87.mp3"
					}
				}
				}
				,
				{
				"language": "km",
				"languageUsesArticles": "false",
				"translation": {
					"translation": "យះ",
					"romanisedtranslation": "yeah",
					"audio": {
						"audioPath": "cache/audio/km/យះ.mp3",
						"audioFileNameInZip": "cache/audio/km/%E1%9E%99%E1%9F%87.mp3",
						"audioUrl": "https://s3-ap-southeast-2.amazonaws.com/playlearn/cache/audio/km/%E1%9E%99%E1%9F%87.mp3"
					}
				}
				}
		]

		}
		,
		{
		"id": "រុំ​",
		"uniqueid": "រុំ​",
		"cfg-between_char": "false",
		"cfg-note_char": "false",
		"image": {
		},
		"translations":
		[
				{
				"language": "en_us",
				"languageUsesArticles": "false",
				"translation": {
					"translation": "រុំ​",
					"audio": {
						"audioPath": "cache/audio/en_us/រុំ​.mp3",
						"audioFileNameInZip": "cache/audio/en_us/%E1%9E%9A%E1%9E%BB%E1%9F%86%E2%80%8B.mp3",
						"audioUrl": "https://s3-ap-southeast-2.amazonaws.com/playlearn/cache/audio/en_us/%E1%9E%9A%E1%9E%BB%E1%9F%86%E2%80%8B.mp3"
					}
				}
				}
				,
				{
				"language": "km",
				"languageUsesArticles": "false",
				"translation": {
					"translation": "រុំ​",
					"romanisedtranslation": "rum",
					"audio": {
						"audioPath": "cache/audio/km/រុំ​.mp3",
						"audioFileNameInZip": "cache/audio/km/%E1%9E%9A%E1%9E%BB%E1%9F%86%E2%80%8B.mp3",
						"audioUrl": "https://s3-ap-southeast-2.amazonaws.com/playlearn/cache/audio/km/%E1%9E%9A%E1%9E%BB%E1%9F%86%E2%80%8B.mp3"
					}
				}
				}
		]

		}
		,
		{
		"id": "រះ",
		"uniqueid": "រះ",
		"cfg-between_char": "false",
		"cfg-note_char": "false",
		"image": {
		},
		"translations":
		[
				{
				"language": "en_us",
				"languageUsesArticles": "false",
				"translation": {
					"translation": "រះ",
					"audio": {
						"audioPath": "cache/audio/en_us/រះ.mp3",
						"audioFileNameInZip": "cache/audio/en_us/%E1%9E%9A%E1%9F%87.mp3",
						"audioUrl": "https://s3-ap-southeast-2.amazonaws.com/playlearn/cache/audio/en_us/%E1%9E%9A%E1%9F%87.mp3"
					}
				}
				}
				,
				{
				"language": "km",
				"languageUsesArticles": "false",
				"translation": {
					"translation": "រះ",
					"romanisedtranslation": "reah",
					"audio": {
						"audioPath": "cache/audio/km/រះ.mp3",
						"audioFileNameInZip": "cache/audio/km/%E1%9E%9A%E1%9F%87.mp3",
						"audioUrl": "https://s3-ap-southeast-2.amazonaws.com/playlearn/cache/audio/km/%E1%9E%9A%E1%9F%87.mp3"
					}
				}
				}
		]

		}
		,
		{
		"id": "លុះ",
		"uniqueid": "លុះ",
		"cfg-between_char": "false",
		"cfg-note_char": "false",
		"image": {
		},
		"translations":
		[
				{
				"language": "en_us",
				"languageUsesArticles": "false",
				"translation": {
					"translation": "លុះ",
					"audio": {
						"audioPath": "cache/audio/en_us/លុះ.mp3",
						"audioFileNameInZip": "cache/audio/en_us/%E1%9E%9B%E1%9E%BB%E1%9F%87.mp3",
						"audioUrl": "https://s3-ap-southeast-2.amazonaws.com/playlearn/cache/audio/en_us/%E1%9E%9B%E1%9E%BB%E1%9F%87.mp3"
					}
				}
				}
				,
				{
				"language": "km",
				"languageUsesArticles": "false",
				"translation": {
					"translation": "លុះ",
					"romanisedtranslation": "luh",
					"audio": {
						"audioPath": "cache/audio/km/លុះ.mp3",
						"audioFileNameInZip": "cache/audio/km/%E1%9E%9B%E1%9E%BB%E1%9F%87.mp3",
						"audioUrl": "https://s3-ap-southeast-2.amazonaws.com/playlearn/cache/audio/km/%E1%9E%9B%E1%9E%BB%E1%9F%87.mp3"
					}
				}
				}
		]

		}
		,
		{
		"id": "លោះ",
		"uniqueid": "លោះ",
		"cfg-between_char": "false",
		"cfg-note_char": "false",
		"image": {
		},
		"translations":
		[
				{
				"language": "en_us",
				"languageUsesArticles": "false",
				"translation": {
					"translation": "លោះ",
					"audio": {
						"audioPath": "cache/audio/en_us/លោះ.mp3",
						"audioFileNameInZip": "cache/audio/en_us/%E1%9E%9B%E1%9F%84%E1%9F%87.mp3",
						"audioUrl": "https://s3-ap-southeast-2.amazonaws.com/playlearn/cache/audio/en_us/%E1%9E%9B%E1%9F%84%E1%9F%87.mp3"
					}
				}
				}
				,
				{
				"language": "km",
				"languageUsesArticles": "false",
				"translation": {
					"translation": "លោះ",
					"romanisedtranslation": "lʊəh",
					"audio": {
						"audioPath": "cache/audio/km/លោះ.mp3",
						"audioFileNameInZip": "cache/audio/km/%E1%9E%9B%E1%9F%84%E1%9F%87.mp3",
						"audioUrl": "https://s3-ap-southeast-2.amazonaws.com/playlearn/cache/audio/km/%E1%9E%9B%E1%9F%84%E1%9F%87.mp3"
					}
				}
				}
		]

		}
		,
		{
		"id": "លះ",
		"uniqueid": "លះ",
		"cfg-between_char": "false",
		"cfg-note_char": "false",
		"image": {
		},
		"translations":
		[
				{
				"language": "en_us",
				"languageUsesArticles": "false",
				"translation": {
					"translation": "លះ",
					"audio": {
						"audioPath": "cache/audio/en_us/លះ.mp3",
						"audioFileNameInZip": "cache/audio/en_us/%E1%9E%9B%E1%9F%87.mp3",
						"audioUrl": "https://s3-ap-southeast-2.amazonaws.com/playlearn/cache/audio/en_us/%E1%9E%9B%E1%9F%87.mp3"
					}
				}
				}
				,
				{
				"language": "km",
				"languageUsesArticles": "false",
				"translation": {
					"translation": "លះ",
					"romanisedtranslation": "leah",
					"audio": {
						"audioPath": "cache/audio/km/លះ.mp3",
						"audioFileNameInZip": "cache/audio/km/%E1%9E%9B%E1%9F%87.mp3",
						"audioUrl": "https://s3-ap-southeast-2.amazonaws.com/playlearn/cache/audio/km/%E1%9E%9B%E1%9F%87.mp3"
					}
				}
				}
		]

		}
		,
		{
		"id": "សាំ",
		"uniqueid": "សាំ",
		"cfg-between_char": "false",
		"cfg-note_char": "false",
		"image": {
		},
		"translations":
		[
				{
				"language": "en_us",
				"languageUsesArticles": "false",
				"translation": {
					"translation": "សាំ",
					"audio": {
						"audioPath": "cache/audio/en_us/សាំ.mp3",
						"audioFileNameInZip": "cache/audio/en_us/%E1%9E%9F%E1%9E%B6%E1%9F%86.mp3",
						"audioUrl": "https://s3-ap-southeast-2.amazonaws.com/playlearn/cache/audio/en_us/%E1%9E%9F%E1%9E%B6%E1%9F%86.mp3"
					}
				}
				}
				,
				{
				"language": "km",
				"languageUsesArticles": "false",
				"translation": {
					"translation": "សាំ",
					"romanisedtranslation": "sam",
					"audio": {
						"audioPath": "cache/audio/km/សាំ.mp3",
						"audioFileNameInZip": "cache/audio/km/%E1%9E%9F%E1%9E%B6%E1%9F%86.mp3",
						"audioUrl": "https://s3-ap-southeast-2.amazonaws.com/playlearn/cache/audio/km/%E1%9E%9F%E1%9E%B6%E1%9F%86.mp3"
					}
				}
				}
		]

		}
		,
		{
		"id": "សុំ",
		"uniqueid": "សុំ",
		"cfg-between_char": "false",
		"cfg-note_char": "false",
		"image": {
		},
		"translations":
		[
				{
				"language": "en_us",
				"languageUsesArticles": "false",
				"translation": {
					"translation": "សុំ",
					"audio": {
						"audioPath": "cache/audio/en_us/សុំ.mp3",
						"audioFileNameInZip": "cache/audio/en_us/%E1%9E%9F%E1%9E%BB%E1%9F%86.mp3",
						"audioUrl": "https://s3-ap-southeast-2.amazonaws.com/playlearn/cache/audio/en_us/%E1%9E%9F%E1%9E%BB%E1%9F%86.mp3"
					}
				}
				}
				,
				{
				"language": "km",
				"languageUsesArticles": "false",
				"translation": {
					"translation": "សុំ",
					"romanisedtranslation": "som",
					"audio": {
						"audioPath": "cache/audio/km/សុំ.mp3",
						"audioFileNameInZip": "cache/audio/km/%E1%9E%9F%E1%9E%BB%E1%9F%86.mp3",
						"audioUrl": "https://s3-ap-southeast-2.amazonaws.com/playlearn/cache/audio/km/%E1%9E%9F%E1%9E%BB%E1%9F%86.mp3"
					}
				}
				}
		]

		}
		,
		{
		"id": "សុះ",
		"uniqueid": "សុះ",
		"cfg-between_char": "false",
		"cfg-note_char": "false",
		"image": {
		},
		"translations":
		[
				{
				"language": "en_us",
				"languageUsesArticles": "false",
				"translation": {
					"translation": "សុះ",
					"audio": {
						"audioPath": "cache/audio/en_us/សុះ.mp3",
						"audioFileNameInZip": "cache/audio/en_us/%E1%9E%9F%E1%9E%BB%E1%9F%87.mp3",
						"audioUrl": "https://s3-ap-southeast-2.amazonaws.com/playlearn/cache/audio/en_us/%E1%9E%9F%E1%9E%BB%E1%9F%87.mp3"
					}
				}
				}
				,
				{
				"language": "km",
				"languageUsesArticles": "false",
				"translation": {
					"translation": "សុះ",
					"romanisedtranslation": "soh",
					"audio": {
						"audioPath": "cache/audio/km/សុះ.mp3",
						"audioFileNameInZip": "cache/audio/km/%E1%9E%9F%E1%9E%BB%E1%9F%87.mp3",
						"audioUrl": "https://s3-ap-southeast-2.amazonaws.com/playlearn/cache/audio/km/%E1%9E%9F%E1%9E%BB%E1%9F%87.mp3"
					}
				}
				}
		]

		}
		,
		{
		"id": "សេះ​",
		"uniqueid": "សេះ​",
		"cfg-between_char": "false",
		"cfg-note_char": "false",
		"image": {
		},
		"translations":
		[
				{
				"language": "en_us",
				"languageUsesArticles": "false",
				"translation": {
					"translation": "សេះ​",
					"audio": {
						"audioPath": "cache/audio/en_us/សេះ​.mp3",
						"audioFileNameInZip": "cache/audio/en_us/%E1%9E%9F%E1%9F%81%E1%9F%87%E2%80%8B.mp3",
						"audioUrl": "https://s3-ap-southeast-2.amazonaws.com/playlearn/cache/audio/en_us/%E1%9E%9F%E1%9F%81%E1%9F%87%E2%80%8B.mp3"
					}
				}
				}
				,
				{
				"language": "km",
				"languageUsesArticles": "false",
				"translation": {
					"translation": "សេះ​",
					"romanisedtranslation": "seh",
					"audio": {
						"audioPath": "cache/audio/km/សេះ​.mp3",
						"audioFileNameInZip": "cache/audio/km/%E1%9E%9F%E1%9F%81%E1%9F%87%E2%80%8B.mp3",
						"audioUrl": "https://s3-ap-southeast-2.amazonaws.com/playlearn/cache/audio/km/%E1%9E%9F%E1%9F%81%E1%9F%87%E2%80%8B.mp3"
					}
				}
				}
		]

		}
		,
		{
		"id": "សោះ",
		"uniqueid": "សោះ",
		"cfg-between_char": "false",
		"cfg-note_char": "false",
		"image": {
		},
		"translations":
		[
				{
				"language": "en_us",
				"languageUsesArticles": "false",
				"translation": {
					"translation": "សោះ",
					"audio": {
						"audioPath": "cache/audio/en_us/សោះ.mp3",
						"audioFileNameInZip": "cache/audio/en_us/%E1%9E%9F%E1%9F%84%E1%9F%87.mp3",
						"audioUrl": "https://s3-ap-southeast-2.amazonaws.com/playlearn/cache/audio/en_us/%E1%9E%9F%E1%9F%84%E1%9F%87.mp3"
					}
				}
				}
				,
				{
				"language": "km",
				"languageUsesArticles": "false",
				"translation": {
					"translation": "សោះ",
					"romanisedtranslation": "sah",
					"audio": {
						"audioPath": "cache/audio/km/សោះ.mp3",
						"audioFileNameInZip": "cache/audio/km/%E1%9E%9F%E1%9F%84%E1%9F%87.mp3",
						"audioUrl": "https://s3-ap-southeast-2.amazonaws.com/playlearn/cache/audio/km/%E1%9E%9F%E1%9F%84%E1%9F%87.mp3"
					}
				}
				}
		]

		}
		,
		{
		"id": "សំ",
		"uniqueid": "សំ",
		"cfg-between_char": "false",
		"cfg-note_char": "false",
		"image": {
		},
		"translations":
		[
				{
				"language": "en_us",
				"languageUsesArticles": "false",
				"translation": {
					"translation": "សំ",
					"audio": {
						"audioPath": "cache/audio/en_us/សំ.mp3",
						"audioFileNameInZip": "cache/audio/en_us/%E1%9E%9F%E1%9F%86.mp3",
						"audioUrl": "https://s3-ap-southeast-2.amazonaws.com/playlearn/cache/audio/en_us/%E1%9E%9F%E1%9F%86.mp3"
					}
				}
				}
				,
				{
				"language": "km",
				"languageUsesArticles": "false",
				"translation": {
					"translation": "សំ",
					"romanisedtranslation": "sam",
					"audio": {
						"audioPath": "cache/audio/km/សំ.mp3",
						"audioFileNameInZip": "cache/audio/km/%E1%9E%9F%E1%9F%86.mp3",
						"audioUrl": "https://s3-ap-southeast-2.amazonaws.com/playlearn/cache/audio/km/%E1%9E%9F%E1%9F%86.mp3"
					}
				}
				}
		]

		}
		,
		{
		"id": "អាំ",
		"uniqueid": "អាំ",
		"cfg-between_char": "false",
		"cfg-note_char": "false",
		"image": {
		},
		"translations":
		[
				{
				"language": "en_us",
				"languageUsesArticles": "false",
				"translation": {
					"translation": "អាំ",
					"audio": {
						"audioPath": "cache/audio/en_us/អាំ.mp3",
						"audioFileNameInZip": "cache/audio/en_us/%E1%9E%A2%E1%9E%B6%E1%9F%86.mp3",
						"audioUrl": "https://s3-ap-southeast-2.amazonaws.com/playlearn/cache/audio/en_us/%E1%9E%A2%E1%9E%B6%E1%9F%86.mp3"
					}
				}
				}
				,
				{
				"language": "km",
				"languageUsesArticles": "false",
				"translation": {
					"translation": "អាំ",
					"romanisedtranslation": "ʔam",
					"audio": {
						"audioPath": "cache/audio/km/អាំ.mp3",
						"audioFileNameInZip": "cache/audio/km/%E1%9E%A2%E1%9E%B6%E1%9F%86.mp3",
						"audioUrl": "https://s3-ap-southeast-2.amazonaws.com/playlearn/cache/audio/km/%E1%9E%A2%E1%9E%B6%E1%9F%86.mp3"
					}
				}
				}
		]

		}
		,
		{
		"id": "អេះ​",
		"uniqueid": "អេះ​",
		"cfg-between_char": "false",
		"cfg-note_char": "false",
		"image": {
		},
		"translations":
		[
				{
				"language": "en_us",
				"languageUsesArticles": "false",
				"translation": {
					"translation": "អេះ​",
					"audio": {
						"audioPath": "cache/audio/en_us/អេះ​.mp3",
						"audioFileNameInZip": "cache/audio/en_us/%E1%9E%A2%E1%9F%81%E1%9F%87%E2%80%8B.mp3",
						"audioUrl": "https://s3-ap-southeast-2.amazonaws.com/playlearn/cache/audio/en_us/%E1%9E%A2%E1%9F%81%E1%9F%87%E2%80%8B.mp3"
					}
				}
				}
				,
				{
				"language": "km",
				"languageUsesArticles": "false",
				"translation": {
					"translation": "អេះ​",
					"romanisedtranslation": "ʔeh",
					"audio": {
						"audioPath": "cache/audio/km/អេះ​.mp3",
						"audioFileNameInZip": "cache/audio/km/%E1%9E%A2%E1%9F%81%E1%9F%87%E2%80%8B.mp3",
						"audioUrl": "https://s3-ap-southeast-2.amazonaws.com/playlearn/cache/audio/km/%E1%9E%A2%E1%9F%81%E1%9F%87%E2%80%8B.mp3"
					}
				}
				}
		]

		}
	]
}