{
	"id": "khmer_vowels_dependant_consonantpractise_group2",
	"config": {
		"noshuffle": "false",
		"packlevel": "",
		"audio": "true",
		"cardnumbers": "false",
		"images": "false",
		"sourceLanguage": "km",
		"packtype": "alphabet_letters",
		"wordtype": "vowel_dependant"
	},
	"propertyFile": "https://s3-ap-southeast-2.amazonaws.com/playlearn/products/alphakm/packs/khmer_vowels/khmer_vowels_dependant_consonantpractise_group2.json",
	"zip_audio":	[
			{"language": "en_us","url": "https://s3-ap-southeast-2.amazonaws.com/playlearn/zips/alphakm/khmer_vowels_dependant_consonantpractise_group2_audio_en_us.zip"},			{"language": "km","url": "https://s3-ap-southeast-2.amazonaws.com/playlearn/zips/alphakm/khmer_vowels_dependant_consonantpractise_group2_audio_km.zip"}	]
,	"zip_image": {
	},
	"cards": [
		{
		"id": "កៀ",
		"uniqueid": "កៀ",
		"cfg-between_char": "false",
		"cfg-note_char": "false",
		"image": {
		},
		"translations":
		[
				{
				"language": "en_us",
				"languageUsesArticles": "false",
				"translation": {
					"translation": "កៀ",
					"audio": {
						"audioPath": "cache/audio/en_us/កៀ.mp3",
						"audioFileNameInZip": "cache/audio/en_us/%E1%9E%80%E1%9F%80.mp3",
						"audioUrl": "https://s3-ap-southeast-2.amazonaws.com/playlearn/cache/audio/en_us/%E1%9E%80%E1%9F%80.mp3"
					}
				}
				}
				,
				{
				"language": "km",
				"languageUsesArticles": "false",
				"translation": {
					"translation": "កៀ",
					"romanisedtranslation": "kiǝ",
					"audio": {
						"audioPath": "cache/audio/km/កៀ.mp3",
						"audioFileNameInZip": "cache/audio/km/%E1%9E%80%E1%9F%80.mp3",
						"audioUrl": "https://s3-ap-southeast-2.amazonaws.com/playlearn/cache/audio/km/%E1%9E%80%E1%9F%80.mp3"
					}
				}
				}
		]

		}
		,
		{
		"id": "កោ",
		"uniqueid": "កោ",
		"cfg-between_char": "false",
		"cfg-note_char": "false",
		"image": {
		},
		"translations":
		[
				{
				"language": "en_us",
				"languageUsesArticles": "false",
				"translation": {
					"translation": "កោ",
					"audio": {
						"audioPath": "cache/audio/en_us/កោ.mp3",
						"audioFileNameInZip": "cache/audio/en_us/%E1%9E%80%E1%9F%84.mp3",
						"audioUrl": "https://s3-ap-southeast-2.amazonaws.com/playlearn/cache/audio/en_us/%E1%9E%80%E1%9F%84.mp3"
					}
				}
				}
				,
				{
				"language": "km",
				"languageUsesArticles": "false",
				"translation": {
					"translation": "កោ",
					"romanisedtranslation": "kao",
					"audio": {
						"audioPath": "cache/audio/km/កោ.mp3",
						"audioFileNameInZip": "cache/audio/km/%E1%9E%80%E1%9F%84.mp3",
						"audioUrl": "https://s3-ap-southeast-2.amazonaws.com/playlearn/cache/audio/km/%E1%9E%80%E1%9F%84.mp3"
					}
				}
				}
		]

		}
		,
		{
		"id": "ខៃ",
		"uniqueid": "ខៃ",
		"cfg-between_char": "false",
		"cfg-note_char": "false",
		"image": {
		},
		"translations":
		[
				{
				"language": "en_us",
				"languageUsesArticles": "false",
				"translation": {
					"translation": "ខៃ",
					"audio": {
						"audioPath": "cache/audio/en_us/ខៃ.mp3",
						"audioFileNameInZip": "cache/audio/en_us/%E1%9E%81%E1%9F%83.mp3",
						"audioUrl": "https://s3-ap-southeast-2.amazonaws.com/playlearn/cache/audio/en_us/%E1%9E%81%E1%9F%83.mp3"
					}
				}
				}
				,
				{
				"language": "km",
				"languageUsesArticles": "false",
				"translation": {
					"translation": "ខៃ",
					"romanisedtranslation": "kʰay",
					"audio": {
						"audioPath": "cache/audio/km/ខៃ.mp3",
						"audioFileNameInZip": "cache/audio/km/%E1%9E%81%E1%9F%83.mp3",
						"audioUrl": "https://s3-ap-southeast-2.amazonaws.com/playlearn/cache/audio/km/%E1%9E%81%E1%9F%83.mp3"
					}
				}
				}
		]

		}
		,
		{
		"id": "ខោ",
		"uniqueid": "ខោ",
		"cfg-between_char": "false",
		"cfg-note_char": "false",
		"image": {
		},
		"translations":
		[
				{
				"language": "en_us",
				"languageUsesArticles": "false",
				"translation": {
					"translation": "ខោ",
					"audio": {
						"audioPath": "cache/audio/en_us/ខោ.mp3",
						"audioFileNameInZip": "cache/audio/en_us/%E1%9E%81%E1%9F%84.mp3",
						"audioUrl": "https://s3-ap-southeast-2.amazonaws.com/playlearn/cache/audio/en_us/%E1%9E%81%E1%9F%84.mp3"
					}
				}
				}
				,
				{
				"language": "km",
				"languageUsesArticles": "false",
				"translation": {
					"translation": "ខោ",
					"romanisedtranslation": "kʰao",
					"audio": {
						"audioPath": "cache/audio/km/ខោ.mp3",
						"audioFileNameInZip": "cache/audio/km/%E1%9E%81%E1%9F%84.mp3",
						"audioUrl": "https://s3-ap-southeast-2.amazonaws.com/playlearn/cache/audio/km/%E1%9E%81%E1%9F%84.mp3"
					}
				}
				}
		]

		}
		,
		{
		"id": "គេ",
		"uniqueid": "គេ",
		"cfg-between_char": "false",
		"cfg-note_char": "false",
		"image": {
		},
		"translations":
		[
				{
				"language": "en_us",
				"languageUsesArticles": "false",
				"translation": {
					"translation": "គេ",
					"audio": {
						"audioPath": "cache/audio/en_us/គេ.mp3",
						"audioFileNameInZip": "cache/audio/en_us/%E1%9E%82%E1%9F%81.mp3",
						"audioUrl": "https://s3-ap-southeast-2.amazonaws.com/playlearn/cache/audio/en_us/%E1%9E%82%E1%9F%81.mp3"
					}
				}
				}
				,
				{
				"language": "km",
				"languageUsesArticles": "false",
				"translation": {
					"translation": "គេ",
					"romanisedtranslation": "kee",
					"audio": {
						"audioPath": "cache/audio/km/គេ.mp3",
						"audioFileNameInZip": "cache/audio/km/%E1%9E%82%E1%9F%81.mp3",
						"audioUrl": "https://s3-ap-southeast-2.amazonaws.com/playlearn/cache/audio/km/%E1%9E%82%E1%9F%81.mp3"
					}
				}
				}
		]

		}
		,
		{
		"id": "ងឿ",
		"uniqueid": "ងឿ",
		"cfg-between_char": "false",
		"cfg-note_char": "false",
		"image": {
		},
		"translations":
		[
				{
				"language": "en_us",
				"languageUsesArticles": "false",
				"translation": {
					"translation": "ងឿ",
					"audio": {
						"audioPath": "cache/audio/en_us/ងឿ.mp3",
						"audioFileNameInZip": "cache/audio/en_us/%E1%9E%84%E1%9E%BF.mp3",
						"audioUrl": "https://s3-ap-southeast-2.amazonaws.com/playlearn/cache/audio/en_us/%E1%9E%84%E1%9E%BF.mp3"
					}
				}
				}
				,
				{
				"language": "km",
				"languageUsesArticles": "false",
				"translation": {
					"translation": "ងឿ",
					"romanisedtranslation": "ŋɨə",
					"audio": {
						"audioPath": "cache/audio/km/ងឿ.mp3",
						"audioFileNameInZip": "cache/audio/km/%E1%9E%84%E1%9E%BF.mp3",
						"audioUrl": "https://s3-ap-southeast-2.amazonaws.com/playlearn/cache/audio/km/%E1%9E%84%E1%9E%BF.mp3"
					}
				}
				}
		]

		}
		,
		{
		"id": "ចែ",
		"uniqueid": "ចែ",
		"cfg-between_char": "false",
		"cfg-note_char": "false",
		"image": {
		},
		"translations":
		[
				{
				"language": "en_us",
				"languageUsesArticles": "false",
				"translation": {
					"translation": "ចែ",
					"audio": {
						"audioPath": "cache/audio/en_us/ចែ.mp3",
						"audioFileNameInZip": "cache/audio/en_us/%E1%9E%85%E1%9F%82.mp3",
						"audioUrl": "https://s3-ap-southeast-2.amazonaws.com/playlearn/cache/audio/en_us/%E1%9E%85%E1%9F%82.mp3"
					}
				}
				}
				,
				{
				"language": "km",
				"languageUsesArticles": "false",
				"translation": {
					"translation": "ចែ",
					"romanisedtranslation": "cae",
					"audio": {
						"audioPath": "cache/audio/km/ចែ.mp3",
						"audioFileNameInZip": "cache/audio/km/%E1%9E%85%E1%9F%82.mp3",
						"audioUrl": "https://s3-ap-southeast-2.amazonaws.com/playlearn/cache/audio/km/%E1%9E%85%E1%9F%82.mp3"
					}
				}
				}
		]

		}
		,
		{
		"id": "ចោ",
		"uniqueid": "ចោ",
		"cfg-between_char": "false",
		"cfg-note_char": "false",
		"image": {
		},
		"translations":
		[
				{
				"language": "en_us",
				"languageUsesArticles": "false",
				"translation": {
					"translation": "ចោ",
					"audio": {
						"audioPath": "cache/audio/en_us/ចោ.mp3",
						"audioFileNameInZip": "cache/audio/en_us/%E1%9E%85%E1%9F%84.mp3",
						"audioUrl": "https://s3-ap-southeast-2.amazonaws.com/playlearn/cache/audio/en_us/%E1%9E%85%E1%9F%84.mp3"
					}
				}
				}
				,
				{
				"language": "km",
				"languageUsesArticles": "false",
				"translation": {
					"translation": "ចោ",
					"romanisedtranslation": "cao",
					"audio": {
						"audioPath": "cache/audio/km/ចោ.mp3",
						"audioFileNameInZip": "cache/audio/km/%E1%9E%85%E1%9F%84.mp3",
						"audioUrl": "https://s3-ap-southeast-2.amazonaws.com/playlearn/cache/audio/km/%E1%9E%85%E1%9F%84.mp3"
					}
				}
				}
		]

		}
		,
		{
		"id": "ជឿ",
		"uniqueid": "ជឿ",
		"cfg-between_char": "false",
		"cfg-note_char": "false",
		"image": {
		},
		"translations":
		[
				{
				"language": "en_us",
				"languageUsesArticles": "false",
				"translation": {
					"translation": "ជឿ",
					"audio": {
						"audioPath": "cache/audio/en_us/ជឿ.mp3",
						"audioFileNameInZip": "cache/audio/en_us/%E1%9E%87%E1%9E%BF.mp3",
						"audioUrl": "https://s3-ap-southeast-2.amazonaws.com/playlearn/cache/audio/en_us/%E1%9E%87%E1%9E%BF.mp3"
					}
				}
				}
				,
				{
				"language": "km",
				"languageUsesArticles": "false",
				"translation": {
					"translation": "ជឿ",
					"romanisedtranslation": "cɨə",
					"audio": {
						"audioPath": "cache/audio/km/ជឿ.mp3",
						"audioFileNameInZip": "cache/audio/km/%E1%9E%87%E1%9E%BF.mp3",
						"audioUrl": "https://s3-ap-southeast-2.amazonaws.com/playlearn/cache/audio/km/%E1%9E%87%E1%9E%BF.mp3"
					}
				}
				}
		]

		}
		,
		{
		"id": "ជេ",
		"uniqueid": "ជេ",
		"cfg-between_char": "false",
		"cfg-note_char": "false",
		"image": {
		},
		"translations":
		[
				{
				"language": "en_us",
				"languageUsesArticles": "false",
				"translation": {
					"translation": "ជេ",
					"audio": {
						"audioPath": "cache/audio/en_us/ជេ.mp3",
						"audioFileNameInZip": "cache/audio/en_us/%E1%9E%87%E1%9F%81.mp3",
						"audioUrl": "https://s3-ap-southeast-2.amazonaws.com/playlearn/cache/audio/en_us/%E1%9E%87%E1%9F%81.mp3"
					}
				}
				}
				,
				{
				"language": "km",
				"languageUsesArticles": "false",
				"translation": {
					"translation": "ជេ",
					"romanisedtranslation": "cee",
					"audio": {
						"audioPath": "cache/audio/km/ជេ.mp3",
						"audioFileNameInZip": "cache/audio/km/%E1%9E%87%E1%9F%81.mp3",
						"audioUrl": "https://s3-ap-southeast-2.amazonaws.com/playlearn/cache/audio/km/%E1%9E%87%E1%9F%81.mp3"
					}
				}
				}
		]

		}
		,
		{
		"id": "ជោ",
		"uniqueid": "ជោ",
		"cfg-between_char": "false",
		"cfg-note_char": "false",
		"image": {
		},
		"translations":
		[
				{
				"language": "en_us",
				"languageUsesArticles": "false",
				"translation": {
					"translation": "ជោ",
					"audio": {
						"audioPath": "cache/audio/en_us/ជោ.mp3",
						"audioFileNameInZip": "cache/audio/en_us/%E1%9E%87%E1%9F%84.mp3",
						"audioUrl": "https://s3-ap-southeast-2.amazonaws.com/playlearn/cache/audio/en_us/%E1%9E%87%E1%9F%84.mp3"
					}
				}
				}
				,
				{
				"language": "km",
				"languageUsesArticles": "false",
				"translation": {
					"translation": "ជោ",
					"romanisedtranslation": "coo",
					"audio": {
						"audioPath": "cache/audio/km/ជោ.mp3",
						"audioFileNameInZip": "cache/audio/km/%E1%9E%87%E1%9F%84.mp3",
						"audioUrl": "https://s3-ap-southeast-2.amazonaws.com/playlearn/cache/audio/km/%E1%9E%87%E1%9F%84.mp3"
					}
				}
				}
		]

		}
		,
		{
		"id": "ញែ",
		"uniqueid": "ញែ",
		"cfg-between_char": "false",
		"cfg-note_char": "false",
		"image": {
		},
		"translations":
		[
				{
				"language": "en_us",
				"languageUsesArticles": "false",
				"translation": {
					"translation": "ញែ",
					"audio": {
						"audioPath": "cache/audio/en_us/ញែ.mp3",
						"audioFileNameInZip": "cache/audio/en_us/%E1%9E%89%E1%9F%82.mp3",
						"audioUrl": "https://s3-ap-southeast-2.amazonaws.com/playlearn/cache/audio/en_us/%E1%9E%89%E1%9F%82.mp3"
					}
				}
				}
				,
				{
				"language": "km",
				"languageUsesArticles": "false",
				"translation": {
					"translation": "ញែ",
					"romanisedtranslation": "ɲɛɛ",
					"audio": {
						"audioPath": "cache/audio/km/ញែ.mp3",
						"audioFileNameInZip": "cache/audio/km/%E1%9E%89%E1%9F%82.mp3",
						"audioUrl": "https://s3-ap-southeast-2.amazonaws.com/playlearn/cache/audio/km/%E1%9E%89%E1%9F%82.mp3"
					}
				}
				}
		]

		}
		,
		{
		"id": "ដើ",
		"uniqueid": "ដើ",
		"cfg-between_char": "false",
		"cfg-note_char": "false",
		"image": {
		},
		"translations":
		[
				{
				"language": "en_us",
				"languageUsesArticles": "false",
				"translation": {
					"translation": "ដើ",
					"audio": {
						"audioPath": "cache/audio/en_us/ដើ.mp3",
						"audioFileNameInZip": "cache/audio/en_us/%E1%9E%8A%E1%9E%BE.mp3",
						"audioUrl": "https://s3-ap-southeast-2.amazonaws.com/playlearn/cache/audio/en_us/%E1%9E%8A%E1%9E%BE.mp3"
					}
				}
				}
				,
				{
				"language": "km",
				"languageUsesArticles": "false",
				"translation": {
					"translation": "ដើ",
					"romanisedtranslation": "daə",
					"audio": {
						"audioPath": "cache/audio/km/ដើ.mp3",
						"audioFileNameInZip": "cache/audio/km/%E1%9E%8A%E1%9E%BE.mp3",
						"audioUrl": "https://s3-ap-southeast-2.amazonaws.com/playlearn/cache/audio/km/%E1%9E%8A%E1%9E%BE.mp3"
					}
				}
				}
		]

		}
		,
		{
		"id": "ដេ",
		"uniqueid": "ដេ",
		"cfg-between_char": "false",
		"cfg-note_char": "false",
		"image": {
		},
		"translations":
		[
				{
				"language": "en_us",
				"languageUsesArticles": "false",
				"translation": {
					"translation": "ដេ",
					"audio": {
						"audioPath": "cache/audio/en_us/ដេ.mp3",
						"audioFileNameInZip": "cache/audio/en_us/%E1%9E%8A%E1%9F%81.mp3",
						"audioUrl": "https://s3-ap-southeast-2.amazonaws.com/playlearn/cache/audio/en_us/%E1%9E%8A%E1%9F%81.mp3"
					}
				}
				}
				,
				{
				"language": "km",
				"languageUsesArticles": "false",
				"translation": {
					"translation": "ដេ",
					"romanisedtranslation": "deɛ",
					"audio": {
						"audioPath": "cache/audio/km/ដេ.mp3",
						"audioFileNameInZip": "cache/audio/km/%E1%9E%8A%E1%9F%81.mp3",
						"audioUrl": "https://s3-ap-southeast-2.amazonaws.com/playlearn/cache/audio/km/%E1%9E%8A%E1%9F%81.mp3"
					}
				}
				}
		]

		}
		,
		{
		"id": "ដែ",
		"uniqueid": "ដែ",
		"cfg-between_char": "false",
		"cfg-note_char": "false",
		"image": {
		},
		"translations":
		[
				{
				"language": "en_us",
				"languageUsesArticles": "false",
				"translation": {
					"translation": "ដែ",
					"audio": {
						"audioPath": "cache/audio/en_us/ដែ.mp3",
						"audioFileNameInZip": "cache/audio/en_us/%E1%9E%8A%E1%9F%82.mp3",
						"audioUrl": "https://s3-ap-southeast-2.amazonaws.com/playlearn/cache/audio/en_us/%E1%9E%8A%E1%9F%82.mp3"
					}
				}
				}
				,
				{
				"language": "km",
				"languageUsesArticles": "false",
				"translation": {
					"translation": "ដែ",
					"romanisedtranslation": "dae",
					"audio": {
						"audioPath": "cache/audio/km/ដែ.mp3",
						"audioFileNameInZip": "cache/audio/km/%E1%9E%8A%E1%9F%82.mp3",
						"audioUrl": "https://s3-ap-southeast-2.amazonaws.com/playlearn/cache/audio/km/%E1%9E%8A%E1%9F%82.mp3"
					}
				}
				}
		]

		}
		,
		{
		"id": "ដៃ",
		"uniqueid": "ដៃ",
		"cfg-between_char": "false",
		"cfg-note_char": "false",
		"image": {
		},
		"translations":
		[
				{
				"language": "en_us",
				"languageUsesArticles": "false",
				"translation": {
					"translation": "ដៃ",
					"audio": {
						"audioPath": "cache/audio/en_us/ដៃ.mp3",
						"audioFileNameInZip": "cache/audio/en_us/%E1%9E%8A%E1%9F%83.mp3",
						"audioUrl": "https://s3-ap-southeast-2.amazonaws.com/playlearn/cache/audio/en_us/%E1%9E%8A%E1%9F%83.mp3"
					}
				}
				}
				,
				{
				"language": "km",
				"languageUsesArticles": "false",
				"translation": {
					"translation": "ដៃ",
					"romanisedtranslation": "day",
					"audio": {
						"audioPath": "cache/audio/km/ដៃ.mp3",
						"audioFileNameInZip": "cache/audio/km/%E1%9E%8A%E1%9F%83.mp3",
						"audioUrl": "https://s3-ap-southeast-2.amazonaws.com/playlearn/cache/audio/km/%E1%9E%8A%E1%9F%83.mp3"
					}
				}
				}
		]

		}
		,
		{
		"id": "ដៅ",
		"uniqueid": "ដៅ",
		"cfg-between_char": "false",
		"cfg-note_char": "false",
		"image": {
		},
		"translations":
		[
				{
				"language": "en_us",
				"languageUsesArticles": "false",
				"translation": {
					"translation": "ដៅ",
					"audio": {
						"audioPath": "cache/audio/en_us/ដៅ.mp3",
						"audioFileNameInZip": "cache/audio/en_us/%E1%9E%8A%E1%9F%85.mp3",
						"audioUrl": "https://s3-ap-southeast-2.amazonaws.com/playlearn/cache/audio/en_us/%E1%9E%8A%E1%9F%85.mp3"
					}
				}
				}
				,
				{
				"language": "km",
				"languageUsesArticles": "false",
				"translation": {
					"translation": "ដៅ",
					"romanisedtranslation": "dav",
					"audio": {
						"audioPath": "cache/audio/km/ដៅ.mp3",
						"audioFileNameInZip": "cache/audio/km/%E1%9E%8A%E1%9F%85.mp3",
						"audioUrl": "https://s3-ap-southeast-2.amazonaws.com/playlearn/cache/audio/km/%E1%9E%8A%E1%9F%85.mp3"
					}
				}
				}
		]

		}
		,
		{
		"id": "ឍឿ",
		"uniqueid": "ឍឿ",
		"cfg-between_char": "false",
		"cfg-note_char": "false",
		"image": {
		},
		"translations":
		[
				{
				"language": "en_us",
				"languageUsesArticles": "false",
				"translation": {
					"translation": "ឍឿ",
					"audio": {
						"audioPath": "cache/audio/en_us/ឍឿ.mp3",
						"audioFileNameInZip": "cache/audio/en_us/%E1%9E%8D%E1%9E%BF.mp3",
						"audioUrl": "https://s3-ap-southeast-2.amazonaws.com/playlearn/cache/audio/en_us/%E1%9E%8D%E1%9E%BF.mp3"
					}
				}
				}
				,
				{
				"language": "km",
				"languageUsesArticles": "false",
				"translation": {
					"translation": "ឍឿ",
					"romanisedtranslation": "tʰɨə",
					"audio": {
						"audioPath": "cache/audio/km/ឍឿ.mp3",
						"audioFileNameInZip": "cache/audio/km/%E1%9E%8D%E1%9E%BF.mp3",
						"audioUrl": "https://s3-ap-southeast-2.amazonaws.com/playlearn/cache/audio/km/%E1%9E%8D%E1%9E%BF.mp3"
					}
				}
				}
		]

		}
		,
		{
		"id": "ណែ",
		"uniqueid": "ណែ",
		"cfg-between_char": "false",
		"cfg-note_char": "false",
		"image": {
		},
		"translations":
		[
				{
				"language": "en_us",
				"languageUsesArticles": "false",
				"translation": {
					"translation": "ណែ",
					"audio": {
						"audioPath": "cache/audio/en_us/ណែ.mp3",
						"audioFileNameInZip": "cache/audio/en_us/%E1%9E%8E%E1%9F%82.mp3",
						"audioUrl": "https://s3-ap-southeast-2.amazonaws.com/playlearn/cache/audio/en_us/%E1%9E%8E%E1%9F%82.mp3"
					}
				}
				}
				,
				{
				"language": "km",
				"languageUsesArticles": "false",
				"translation": {
					"translation": "ណែ",
					"romanisedtranslation": "nae",
					"audio": {
						"audioPath": "cache/audio/km/ណែ.mp3",
						"audioFileNameInZip": "cache/audio/km/%E1%9E%8E%E1%9F%82.mp3",
						"audioUrl": "https://s3-ap-southeast-2.amazonaws.com/playlearn/cache/audio/km/%E1%9E%8E%E1%9F%82.mp3"
					}
				}
				}
		]

		}
		,
		{
		"id": "តើ",
		"uniqueid": "តើ",
		"cfg-between_char": "false",
		"cfg-note_char": "false",
		"image": {
		},
		"translations":
		[
				{
				"language": "en_us",
				"languageUsesArticles": "false",
				"translation": {
					"translation": "តើ",
					"audio": {
						"audioPath": "cache/audio/en_us/តើ.mp3",
						"audioFileNameInZip": "cache/audio/en_us/%E1%9E%8F%E1%9E%BE.mp3",
						"audioUrl": "https://s3-ap-southeast-2.amazonaws.com/playlearn/cache/audio/en_us/%E1%9E%8F%E1%9E%BE.mp3"
					}
				}
				}
				,
				{
				"language": "km",
				"languageUsesArticles": "false",
				"translation": {
					"translation": "តើ",
					"romanisedtranslation": "taə",
					"audio": {
						"audioPath": "cache/audio/km/តើ.mp3",
						"audioFileNameInZip": "cache/audio/km/%E1%9E%8F%E1%9E%BE.mp3",
						"audioUrl": "https://s3-ap-southeast-2.amazonaws.com/playlearn/cache/audio/km/%E1%9E%8F%E1%9E%BE.mp3"
					}
				}
				}
		]

		}
		,
		{
		"id": "តឿ",
		"uniqueid": "តឿ",
		"cfg-between_char": "false",
		"cfg-note_char": "false",
		"image": {
		},
		"translations":
		[
				{
				"language": "en_us",
				"languageUsesArticles": "false",
				"translation": {
					"translation": "តឿ",
					"audio": {
						"audioPath": "cache/audio/en_us/តឿ.mp3",
						"audioFileNameInZip": "cache/audio/en_us/%E1%9E%8F%E1%9E%BF.mp3",
						"audioUrl": "https://s3-ap-southeast-2.amazonaws.com/playlearn/cache/audio/en_us/%E1%9E%8F%E1%9E%BF.mp3"
					}
				}
				}
				,
				{
				"language": "km",
				"languageUsesArticles": "false",
				"translation": {
					"translation": "តឿ",
					"romanisedtranslation": "tɨə",
					"audio": {
						"audioPath": "cache/audio/km/តឿ.mp3",
						"audioFileNameInZip": "cache/audio/km/%E1%9E%8F%E1%9E%BF.mp3",
						"audioUrl": "https://s3-ap-southeast-2.amazonaws.com/playlearn/cache/audio/km/%E1%9E%8F%E1%9E%BF.mp3"
					}
				}
				}
		]

		}
		,
		{
		"id": "តោ",
		"uniqueid": "តោ",
		"cfg-between_char": "false",
		"cfg-note_char": "false",
		"image": {
		},
		"translations":
		[
				{
				"language": "en_us",
				"languageUsesArticles": "false",
				"translation": {
					"translation": "តោ",
					"audio": {
						"audioPath": "cache/audio/en_us/តោ.mp3",
						"audioFileNameInZip": "cache/audio/en_us/%E1%9E%8F%E1%9F%84.mp3",
						"audioUrl": "https://s3-ap-southeast-2.amazonaws.com/playlearn/cache/audio/en_us/%E1%9E%8F%E1%9F%84.mp3"
					}
				}
				}
				,
				{
				"language": "km",
				"languageUsesArticles": "false",
				"translation": {
					"translation": "តោ",
					"romanisedtranslation": "tao",
					"audio": {
						"audioPath": "cache/audio/km/តោ.mp3",
						"audioFileNameInZip": "cache/audio/km/%E1%9E%8F%E1%9F%84.mp3",
						"audioUrl": "https://s3-ap-southeast-2.amazonaws.com/playlearn/cache/audio/km/%E1%9E%8F%E1%9F%84.mp3"
					}
				}
				}
		]

		}
		,
		{
		"id": "តៅ",
		"uniqueid": "តៅ",
		"cfg-between_char": "false",
		"cfg-note_char": "false",
		"image": {
		},
		"translations":
		[
				{
				"language": "en_us",
				"languageUsesArticles": "false",
				"translation": {
					"translation": "តៅ",
					"audio": {
						"audioPath": "cache/audio/en_us/តៅ.mp3",
						"audioFileNameInZip": "cache/audio/en_us/%E1%9E%8F%E1%9F%85.mp3",
						"audioUrl": "https://s3-ap-southeast-2.amazonaws.com/playlearn/cache/audio/en_us/%E1%9E%8F%E1%9F%85.mp3"
					}
				}
				}
				,
				{
				"language": "km",
				"languageUsesArticles": "false",
				"translation": {
					"translation": "តៅ",
					"romanisedtranslation": "tav",
					"audio": {
						"audioPath": "cache/audio/km/តៅ.mp3",
						"audioFileNameInZip": "cache/audio/km/%E1%9E%8F%E1%9F%85.mp3",
						"audioUrl": "https://s3-ap-southeast-2.amazonaws.com/playlearn/cache/audio/km/%E1%9E%8F%E1%9F%85.mp3"
					}
				}
				}
		]

		}
		,
		{
		"id": "ថេ",
		"uniqueid": "ថេ",
		"cfg-between_char": "false",
		"cfg-note_char": "false",
		"image": {
		},
		"translations":
		[
				{
				"language": "en_us",
				"languageUsesArticles": "false",
				"translation": {
					"translation": "ថេ",
					"audio": {
						"audioPath": "cache/audio/en_us/ថេ.mp3",
						"audioFileNameInZip": "cache/audio/en_us/%E1%9E%90%E1%9F%81.mp3",
						"audioUrl": "https://s3-ap-southeast-2.amazonaws.com/playlearn/cache/audio/en_us/%E1%9E%90%E1%9F%81.mp3"
					}
				}
				}
				,
				{
				"language": "km",
				"languageUsesArticles": "false",
				"translation": {
					"translation": "ថេ",
					"romanisedtranslation": "tʰeɛ",
					"audio": {
						"audioPath": "cache/audio/km/ថេ.mp3",
						"audioFileNameInZip": "cache/audio/km/%E1%9E%90%E1%9F%81.mp3",
						"audioUrl": "https://s3-ap-southeast-2.amazonaws.com/playlearn/cache/audio/km/%E1%9E%90%E1%9F%81.mp3"
					}
				}
				}
		]

		}
		,
		{
		"id": "ទេ",
		"uniqueid": "ទេ",
		"cfg-between_char": "false",
		"cfg-note_char": "false",
		"image": {
		},
		"translations":
		[
				{
				"language": "en_us",
				"languageUsesArticles": "false",
				"translation": {
					"translation": "ទេ",
					"audio": {
						"audioPath": "cache/audio/en_us/ទេ.mp3",
						"audioFileNameInZip": "cache/audio/en_us/%E1%9E%91%E1%9F%81.mp3",
						"audioUrl": "https://s3-ap-southeast-2.amazonaws.com/playlearn/cache/audio/en_us/%E1%9E%91%E1%9F%81.mp3"
					}
				}
				}
				,
				{
				"language": "km",
				"languageUsesArticles": "false",
				"translation": {
					"translation": "ទេ",
					"romanisedtranslation": "tee",
					"audio": {
						"audioPath": "cache/audio/km/ទេ.mp3",
						"audioFileNameInZip": "cache/audio/km/%E1%9E%91%E1%9F%81.mp3",
						"audioUrl": "https://s3-ap-southeast-2.amazonaws.com/playlearn/cache/audio/km/%E1%9E%91%E1%9F%81.mp3"
					}
				}
				}
		]

		}
		,
		{
		"id": "ទៃ",
		"uniqueid": "ទៃ",
		"cfg-between_char": "false",
		"cfg-note_char": "false",
		"image": {
		},
		"translations":
		[
				{
				"language": "en_us",
				"languageUsesArticles": "false",
				"translation": {
					"translation": "ទៃ",
					"audio": {
						"audioPath": "cache/audio/en_us/ទៃ.mp3",
						"audioFileNameInZip": "cache/audio/en_us/%E1%9E%91%E1%9F%83.mp3",
						"audioUrl": "https://s3-ap-southeast-2.amazonaws.com/playlearn/cache/audio/en_us/%E1%9E%91%E1%9F%83.mp3"
					}
				}
				}
				,
				{
				"language": "km",
				"languageUsesArticles": "false",
				"translation": {
					"translation": "ទៃ",
					"romanisedtranslation": "tey",
					"audio": {
						"audioPath": "cache/audio/km/ទៃ.mp3",
						"audioFileNameInZip": "cache/audio/km/%E1%9E%91%E1%9F%83.mp3",
						"audioUrl": "https://s3-ap-southeast-2.amazonaws.com/playlearn/cache/audio/km/%E1%9E%91%E1%9F%83.mp3"
					}
				}
				}
		]

		}
		,
		{
		"id": "ទៅ",
		"uniqueid": "ទៅ",
		"cfg-between_char": "false",
		"cfg-note_char": "false",
		"image": {
		},
		"translations":
		[
				{
				"language": "en_us",
				"languageUsesArticles": "false",
				"translation": {
					"translation": "ទៅ",
					"audio": {
						"audioPath": "cache/audio/en_us/ទៅ.mp3",
						"audioFileNameInZip": "cache/audio/en_us/%E1%9E%91%E1%9F%85.mp3",
						"audioUrl": "https://s3-ap-southeast-2.amazonaws.com/playlearn/cache/audio/en_us/%E1%9E%91%E1%9F%85.mp3"
					}
				}
				}
				,
				{
				"language": "km",
				"languageUsesArticles": "false",
				"translation": {
					"translation": "ទៅ",
					"romanisedtranslation": "tɨv",
					"audio": {
						"audioPath": "cache/audio/km/ទៅ.mp3",
						"audioFileNameInZip": "cache/audio/km/%E1%9E%91%E1%9F%85.mp3",
						"audioUrl": "https://s3-ap-southeast-2.amazonaws.com/playlearn/cache/audio/km/%E1%9E%91%E1%9F%85.mp3"
					}
				}
				}
		]

		}
		,
		{
		"id": "នែ",
		"uniqueid": "នែ",
		"cfg-between_char": "false",
		"cfg-note_char": "false",
		"image": {
		},
		"translations":
		[
				{
				"language": "en_us",
				"languageUsesArticles": "false",
				"translation": {
					"translation": "នែ",
					"audio": {
						"audioPath": "cache/audio/en_us/នែ.mp3",
						"audioFileNameInZip": "cache/audio/en_us/%E1%9E%93%E1%9F%82.mp3",
						"audioUrl": "https://s3-ap-southeast-2.amazonaws.com/playlearn/cache/audio/en_us/%E1%9E%93%E1%9F%82.mp3"
					}
				}
				}
				,
				{
				"language": "km",
				"languageUsesArticles": "false",
				"translation": {
					"translation": "នែ",
					"romanisedtranslation": "nɛɛ",
					"audio": {
						"audioPath": "cache/audio/km/នែ.mp3",
						"audioFileNameInZip": "cache/audio/km/%E1%9E%93%E1%9F%82.mp3",
						"audioUrl": "https://s3-ap-southeast-2.amazonaws.com/playlearn/cache/audio/km/%E1%9E%93%E1%9F%82.mp3"
					}
				}
				}
		]

		}
		,
		{
		"id": "នៅ",
		"uniqueid": "នៅ",
		"cfg-between_char": "false",
		"cfg-note_char": "false",
		"image": {
		},
		"translations":
		[
				{
				"language": "en_us",
				"languageUsesArticles": "false",
				"translation": {
					"translation": "នៅ",
					"audio": {
						"audioPath": "cache/audio/en_us/នៅ.mp3",
						"audioFileNameInZip": "cache/audio/en_us/%E1%9E%93%E1%9F%85.mp3",
						"audioUrl": "https://s3-ap-southeast-2.amazonaws.com/playlearn/cache/audio/en_us/%E1%9E%93%E1%9F%85.mp3"
					}
				}
				}
				,
				{
				"language": "km",
				"languageUsesArticles": "false",
				"translation": {
					"translation": "នៅ",
					"romanisedtranslation": "nɨv",
					"audio": {
						"audioPath": "cache/audio/km/នៅ.mp3",
						"audioFileNameInZip": "cache/audio/km/%E1%9E%93%E1%9F%85.mp3",
						"audioUrl": "https://s3-ap-southeast-2.amazonaws.com/playlearn/cache/audio/km/%E1%9E%93%E1%9F%85.mp3"
					}
				}
				}
		]

		}
		,
		{
		"id": "បើ",
		"uniqueid": "បើ",
		"cfg-between_char": "false",
		"cfg-note_char": "false",
		"image": {
		},
		"translations":
		[
				{
				"language": "en_us",
				"languageUsesArticles": "false",
				"translation": {
					"translation": "បើ",
					"audio": {
						"audioPath": "cache/audio/en_us/បើ.mp3",
						"audioFileNameInZip": "cache/audio/en_us/%E1%9E%94%E1%9E%BE.mp3",
						"audioUrl": "https://s3-ap-southeast-2.amazonaws.com/playlearn/cache/audio/en_us/%E1%9E%94%E1%9E%BE.mp3"
					}
				}
				}
				,
				{
				"language": "km",
				"languageUsesArticles": "false",
				"translation": {
					"translation": "បើ",
					"romanisedtranslation": "baə",
					"audio": {
						"audioPath": "cache/audio/km/បើ.mp3",
						"audioFileNameInZip": "cache/audio/km/%E1%9E%94%E1%9E%BE.mp3",
						"audioUrl": "https://s3-ap-southeast-2.amazonaws.com/playlearn/cache/audio/km/%E1%9E%94%E1%9E%BE.mp3"
					}
				}
				}
		]

		}
		,
		{
		"id": "បៀ",
		"uniqueid": "បៀ",
		"cfg-between_char": "false",
		"cfg-note_char": "false",
		"image": {
		},
		"translations":
		[
				{
				"language": "en_us",
				"languageUsesArticles": "false",
				"translation": {
					"translation": "បៀ",
					"audio": {
						"audioPath": "cache/audio/en_us/បៀ.mp3",
						"audioFileNameInZip": "cache/audio/en_us/%E1%9E%94%E1%9F%80.mp3",
						"audioUrl": "https://s3-ap-southeast-2.amazonaws.com/playlearn/cache/audio/en_us/%E1%9E%94%E1%9F%80.mp3"
					}
				}
				}
				,
				{
				"language": "km",
				"languageUsesArticles": "false",
				"translation": {
					"translation": "បៀ",
					"romanisedtranslation": "biǝ",
					"audio": {
						"audioPath": "cache/audio/km/បៀ.mp3",
						"audioFileNameInZip": "cache/audio/km/%E1%9E%94%E1%9F%80.mp3",
						"audioUrl": "https://s3-ap-southeast-2.amazonaws.com/playlearn/cache/audio/km/%E1%9E%94%E1%9F%80.mp3"
					}
				}
				}
		]

		}
		,
		{
		"id": "បោ",
		"uniqueid": "បោ",
		"cfg-between_char": "false",
		"cfg-note_char": "false",
		"image": {
		},
		"translations":
		[
				{
				"language": "en_us",
				"languageUsesArticles": "false",
				"translation": {
					"translation": "បោ",
					"audio": {
						"audioPath": "cache/audio/en_us/បោ.mp3",
						"audioFileNameInZip": "cache/audio/en_us/%E1%9E%94%E1%9F%84.mp3",
						"audioUrl": "https://s3-ap-southeast-2.amazonaws.com/playlearn/cache/audio/en_us/%E1%9E%94%E1%9F%84.mp3"
					}
				}
				}
				,
				{
				"language": "km",
				"languageUsesArticles": "false",
				"translation": {
					"translation": "បោ",
					"romanisedtranslation": "bao",
					"audio": {
						"audioPath": "cache/audio/km/បោ.mp3",
						"audioFileNameInZip": "cache/audio/km/%E1%9E%94%E1%9F%84.mp3",
						"audioUrl": "https://s3-ap-southeast-2.amazonaws.com/playlearn/cache/audio/km/%E1%9E%94%E1%9F%84.mp3"
					}
				}
				}
		]

		}
		,
		{
		"id": "បៅ",
		"uniqueid": "បៅ",
		"cfg-between_char": "false",
		"cfg-note_char": "false",
		"image": {
		},
		"translations":
		[
				{
				"language": "en_us",
				"languageUsesArticles": "false",
				"translation": {
					"translation": "បៅ",
					"audio": {
						"audioPath": "cache/audio/en_us/បៅ.mp3",
						"audioFileNameInZip": "cache/audio/en_us/%E1%9E%94%E1%9F%85.mp3",
						"audioUrl": "https://s3-ap-southeast-2.amazonaws.com/playlearn/cache/audio/en_us/%E1%9E%94%E1%9F%85.mp3"
					}
				}
				}
				,
				{
				"language": "km",
				"languageUsesArticles": "false",
				"translation": {
					"translation": "បៅ",
					"romanisedtranslation": "bav",
					"audio": {
						"audioPath": "cache/audio/km/បៅ.mp3",
						"audioFileNameInZip": "cache/audio/km/%E1%9E%94%E1%9F%85.mp3",
						"audioUrl": "https://s3-ap-southeast-2.amazonaws.com/playlearn/cache/audio/km/%E1%9E%94%E1%9F%85.mp3"
					}
				}
				}
		]

		}
		,
		{
		"id": "ផេ",
		"uniqueid": "ផេ",
		"cfg-between_char": "false",
		"cfg-note_char": "false",
		"image": {
		},
		"translations":
		[
				{
				"language": "en_us",
				"languageUsesArticles": "false",
				"translation": {
					"translation": "ផេ",
					"audio": {
						"audioPath": "cache/audio/en_us/ផេ.mp3",
						"audioFileNameInZip": "cache/audio/en_us/%E1%9E%95%E1%9F%81.mp3",
						"audioUrl": "https://s3-ap-southeast-2.amazonaws.com/playlearn/cache/audio/en_us/%E1%9E%95%E1%9F%81.mp3"
					}
				}
				}
				,
				{
				"language": "km",
				"languageUsesArticles": "false",
				"translation": {
					"translation": "ផេ",
					"romanisedtranslation": "pʰeɛ",
					"audio": {
						"audioPath": "cache/audio/km/ផេ.mp3",
						"audioFileNameInZip": "cache/audio/km/%E1%9E%95%E1%9F%81.mp3",
						"audioUrl": "https://s3-ap-southeast-2.amazonaws.com/playlearn/cache/audio/km/%E1%9E%95%E1%9F%81.mp3"
					}
				}
				}
		]

		}
		,
		{
		"id": "ផែ",
		"uniqueid": "ផែ",
		"cfg-between_char": "false",
		"cfg-note_char": "false",
		"image": {
		},
		"translations":
		[
				{
				"language": "en_us",
				"languageUsesArticles": "false",
				"translation": {
					"translation": "ផែ",
					"audio": {
						"audioPath": "cache/audio/en_us/ផែ.mp3",
						"audioFileNameInZip": "cache/audio/en_us/%E1%9E%95%E1%9F%82.mp3",
						"audioUrl": "https://s3-ap-southeast-2.amazonaws.com/playlearn/cache/audio/en_us/%E1%9E%95%E1%9F%82.mp3"
					}
				}
				}
				,
				{
				"language": "km",
				"languageUsesArticles": "false",
				"translation": {
					"translation": "ផែ",
					"romanisedtranslation": "pʰae",
					"audio": {
						"audioPath": "cache/audio/km/ផែ.mp3",
						"audioFileNameInZip": "cache/audio/km/%E1%9E%95%E1%9F%82.mp3",
						"audioUrl": "https://s3-ap-southeast-2.amazonaws.com/playlearn/cache/audio/km/%E1%9E%95%E1%9F%82.mp3"
					}
				}
				}
		]

		}
		,
		{
		"id": "រើ",
		"uniqueid": "រើ",
		"cfg-between_char": "false",
		"cfg-note_char": "false",
		"image": {
		},
		"translations":
		[
				{
				"language": "en_us",
				"languageUsesArticles": "false",
				"translation": {
					"translation": "រើ",
					"audio": {
						"audioPath": "cache/audio/en_us/រើ.mp3",
						"audioFileNameInZip": "cache/audio/en_us/%E1%9E%9A%E1%9E%BE.mp3",
						"audioUrl": "https://s3-ap-southeast-2.amazonaws.com/playlearn/cache/audio/en_us/%E1%9E%9A%E1%9E%BE.mp3"
					}
				}
				}
				,
				{
				"language": "km",
				"languageUsesArticles": "false",
				"translation": {
					"translation": "រើ",
					"romanisedtranslation": "rəə",
					"audio": {
						"audioPath": "cache/audio/km/រើ.mp3",
						"audioFileNameInZip": "cache/audio/km/%E1%9E%9A%E1%9E%BE.mp3",
						"audioUrl": "https://s3-ap-southeast-2.amazonaws.com/playlearn/cache/audio/km/%E1%9E%9A%E1%9E%BE.mp3"
					}
				}
				}
		]

		}
		,
		{
		"id": "រឿ",
		"uniqueid": "រឿ",
		"cfg-between_char": "false",
		"cfg-note_char": "false",
		"image": {
		},
		"translations":
		[
				{
				"language": "en_us",
				"languageUsesArticles": "false",
				"translation": {
					"translation": "រឿ",
					"audio": {
						"audioPath": "cache/audio/en_us/រឿ.mp3",
						"audioFileNameInZip": "cache/audio/en_us/%E1%9E%9A%E1%9E%BF.mp3",
						"audioUrl": "https://s3-ap-southeast-2.amazonaws.com/playlearn/cache/audio/en_us/%E1%9E%9A%E1%9E%BF.mp3"
					}
				}
				}
				,
				{
				"language": "km",
				"languageUsesArticles": "false",
				"translation": {
					"translation": "រឿ",
					"romanisedtranslation": "rɨə",
					"audio": {
						"audioPath": "cache/audio/km/រឿ.mp3",
						"audioFileNameInZip": "cache/audio/km/%E1%9E%9A%E1%9E%BF.mp3",
						"audioUrl": "https://s3-ap-southeast-2.amazonaws.com/playlearn/cache/audio/km/%E1%9E%9A%E1%9E%BF.mp3"
					}
				}
				}
		]

		}
		,
		{
		"id": "រៀ",
		"uniqueid": "រៀ",
		"cfg-between_char": "false",
		"cfg-note_char": "false",
		"image": {
		},
		"translations":
		[
				{
				"language": "en_us",
				"languageUsesArticles": "false",
				"translation": {
					"translation": "រៀ",
					"audio": {
						"audioPath": "cache/audio/en_us/រៀ.mp3",
						"audioFileNameInZip": "cache/audio/en_us/%E1%9E%9A%E1%9F%80.mp3",
						"audioUrl": "https://s3-ap-southeast-2.amazonaws.com/playlearn/cache/audio/en_us/%E1%9E%9A%E1%9F%80.mp3"
					}
				}
				}
				,
				{
				"language": "km",
				"languageUsesArticles": "false",
				"translation": {
					"translation": "រៀ",
					"romanisedtranslation": "riǝ",
					"audio": {
						"audioPath": "cache/audio/km/រៀ.mp3",
						"audioFileNameInZip": "cache/audio/km/%E1%9E%9A%E1%9F%80.mp3",
						"audioUrl": "https://s3-ap-southeast-2.amazonaws.com/playlearn/cache/audio/km/%E1%9E%9A%E1%9F%80.mp3"
					}
				}
				}
		]

		}
		,
		{
		"id": "រៃ",
		"uniqueid": "រៃ",
		"cfg-between_char": "false",
		"cfg-note_char": "false",
		"image": {
		},
		"translations":
		[
				{
				"language": "en_us",
				"languageUsesArticles": "false",
				"translation": {
					"translation": "រៃ",
					"audio": {
						"audioPath": "cache/audio/en_us/រៃ.mp3",
						"audioFileNameInZip": "cache/audio/en_us/%E1%9E%9A%E1%9F%83.mp3",
						"audioUrl": "https://s3-ap-southeast-2.amazonaws.com/playlearn/cache/audio/en_us/%E1%9E%9A%E1%9F%83.mp3"
					}
				}
				}
				,
				{
				"language": "km",
				"languageUsesArticles": "false",
				"translation": {
					"translation": "រៃ",
					"romanisedtranslation": "rey",
					"audio": {
						"audioPath": "cache/audio/km/រៃ.mp3",
						"audioFileNameInZip": "cache/audio/km/%E1%9E%9A%E1%9F%83.mp3",
						"audioUrl": "https://s3-ap-southeast-2.amazonaws.com/playlearn/cache/audio/km/%E1%9E%9A%E1%9F%83.mp3"
					}
				}
				}
		]

		}
		,
		{
		"id": "លៃ",
		"uniqueid": "លៃ",
		"cfg-between_char": "false",
		"cfg-note_char": "false",
		"image": {
		},
		"translations":
		[
				{
				"language": "en_us",
				"languageUsesArticles": "false",
				"translation": {
					"translation": "លៃ",
					"audio": {
						"audioPath": "cache/audio/en_us/លៃ.mp3",
						"audioFileNameInZip": "cache/audio/en_us/%E1%9E%9B%E1%9F%83.mp3",
						"audioUrl": "https://s3-ap-southeast-2.amazonaws.com/playlearn/cache/audio/en_us/%E1%9E%9B%E1%9F%83.mp3"
					}
				}
				}
				,
				{
				"language": "km",
				"languageUsesArticles": "false",
				"translation": {
					"translation": "លៃ",
					"romanisedtranslation": "ley",
					"audio": {
						"audioPath": "cache/audio/km/លៃ.mp3",
						"audioFileNameInZip": "cache/audio/km/%E1%9E%9B%E1%9F%83.mp3",
						"audioUrl": "https://s3-ap-southeast-2.amazonaws.com/playlearn/cache/audio/km/%E1%9E%9B%E1%9F%83.mp3"
					}
				}
				}
		]

		}
		,
		{
		"id": "សឿ​",
		"uniqueid": "សឿ​",
		"cfg-between_char": "false",
		"cfg-note_char": "false",
		"image": {
		},
		"translations":
		[
				{
				"language": "en_us",
				"languageUsesArticles": "false",
				"translation": {
					"translation": "សឿ​",
					"audio": {
						"audioPath": "cache/audio/en_us/សឿ​.mp3",
						"audioFileNameInZip": "cache/audio/en_us/%E1%9E%9F%E1%9E%BF%E2%80%8B.mp3",
						"audioUrl": "https://s3-ap-southeast-2.amazonaws.com/playlearn/cache/audio/en_us/%E1%9E%9F%E1%9E%BF%E2%80%8B.mp3"
					}
				}
				}
				,
				{
				"language": "km",
				"languageUsesArticles": "false",
				"translation": {
					"translation": "សឿ​",
					"romanisedtranslation": "sɨə",
					"audio": {
						"audioPath": "cache/audio/km/សឿ​.mp3",
						"audioFileNameInZip": "cache/audio/km/%E1%9E%9F%E1%9E%BF%E2%80%8B.mp3",
						"audioUrl": "https://s3-ap-southeast-2.amazonaws.com/playlearn/cache/audio/km/%E1%9E%9F%E1%9E%BF%E2%80%8B.mp3"
					}
				}
				}
		]

		}
		,
		{
		"id": "សៀ",
		"uniqueid": "សៀ",
		"cfg-between_char": "false",
		"cfg-note_char": "false",
		"image": {
		},
		"translations":
		[
				{
				"language": "en_us",
				"languageUsesArticles": "false",
				"translation": {
					"translation": "សៀ",
					"audio": {
						"audioPath": "cache/audio/en_us/សៀ.mp3",
						"audioFileNameInZip": "cache/audio/en_us/%E1%9E%9F%E1%9F%80.mp3",
						"audioUrl": "https://s3-ap-southeast-2.amazonaws.com/playlearn/cache/audio/en_us/%E1%9E%9F%E1%9F%80.mp3"
					}
				}
				}
				,
				{
				"language": "km",
				"languageUsesArticles": "false",
				"translation": {
					"translation": "សៀ",
					"romanisedtranslation": "siǝ",
					"audio": {
						"audioPath": "cache/audio/km/សៀ.mp3",
						"audioFileNameInZip": "cache/audio/km/%E1%9E%9F%E1%9F%80.mp3",
						"audioUrl": "https://s3-ap-southeast-2.amazonaws.com/playlearn/cache/audio/km/%E1%9E%9F%E1%9F%80.mp3"
					}
				}
				}
		]

		}
		,
		{
		"id": "សៃ",
		"uniqueid": "សៃ",
		"cfg-between_char": "false",
		"cfg-note_char": "false",
		"image": {
		},
		"translations":
		[
				{
				"language": "en_us",
				"languageUsesArticles": "false",
				"translation": {
					"translation": "សៃ",
					"audio": {
						"audioPath": "cache/audio/en_us/សៃ.mp3",
						"audioFileNameInZip": "cache/audio/en_us/%E1%9E%9F%E1%9F%83.mp3",
						"audioUrl": "https://s3-ap-southeast-2.amazonaws.com/playlearn/cache/audio/en_us/%E1%9E%9F%E1%9F%83.mp3"
					}
				}
				}
				,
				{
				"language": "km",
				"languageUsesArticles": "false",
				"translation": {
					"translation": "សៃ",
					"romanisedtranslation": "say",
					"audio": {
						"audioPath": "cache/audio/km/សៃ.mp3",
						"audioFileNameInZip": "cache/audio/km/%E1%9E%9F%E1%9F%83.mp3",
						"audioUrl": "https://s3-ap-southeast-2.amazonaws.com/playlearn/cache/audio/km/%E1%9E%9F%E1%9F%83.mp3"
					}
				}
				}
		]

		}
		,
		{
		"id": "សោ",
		"uniqueid": "សោ",
		"cfg-between_char": "false",
		"cfg-note_char": "false",
		"image": {
		},
		"translations":
		[
				{
				"language": "en_us",
				"languageUsesArticles": "false",
				"translation": {
					"translation": "សោ",
					"audio": {
						"audioPath": "cache/audio/en_us/សោ.mp3",
						"audioFileNameInZip": "cache/audio/en_us/%E1%9E%9F%E1%9F%84.mp3",
						"audioUrl": "https://s3-ap-southeast-2.amazonaws.com/playlearn/cache/audio/en_us/%E1%9E%9F%E1%9F%84.mp3"
					}
				}
				}
				,
				{
				"language": "km",
				"languageUsesArticles": "false",
				"translation": {
					"translation": "សោ",
					"romanisedtranslation": "sao",
					"audio": {
						"audioPath": "cache/audio/km/សោ.mp3",
						"audioFileNameInZip": "cache/audio/km/%E1%9E%9F%E1%9F%84.mp3",
						"audioUrl": "https://s3-ap-southeast-2.amazonaws.com/playlearn/cache/audio/km/%E1%9E%9F%E1%9F%84.mp3"
					}
				}
				}
		]

		}
		,
		{
		"id": "សៅ",
		"uniqueid": "សៅ",
		"cfg-between_char": "false",
		"cfg-note_char": "false",
		"image": {
		},
		"translations":
		[
				{
				"language": "en_us",
				"languageUsesArticles": "false",
				"translation": {
					"translation": "សៅ",
					"audio": {
						"audioPath": "cache/audio/en_us/សៅ.mp3",
						"audioFileNameInZip": "cache/audio/en_us/%E1%9E%9F%E1%9F%85.mp3",
						"audioUrl": "https://s3-ap-southeast-2.amazonaws.com/playlearn/cache/audio/en_us/%E1%9E%9F%E1%9F%85.mp3"
					}
				}
				}
				,
				{
				"language": "km",
				"languageUsesArticles": "false",
				"translation": {
					"translation": "សៅ",
					"romanisedtranslation": "sav",
					"audio": {
						"audioPath": "cache/audio/km/សៅ.mp3",
						"audioFileNameInZip": "cache/audio/km/%E1%9E%9F%E1%9F%85.mp3",
						"audioUrl": "https://s3-ap-southeast-2.amazonaws.com/playlearn/cache/audio/km/%E1%9E%9F%E1%9F%85.mp3"
					}
				}
				}
		]

		}
		,
		{
		"id": "ហៀ​",
		"uniqueid": "ហៀ​",
		"cfg-between_char": "false",
		"cfg-note_char": "false",
		"image": {
		},
		"translations":
		[
				{
				"language": "en_us",
				"languageUsesArticles": "false",
				"translation": {
					"translation": "ហៀ​",
					"audio": {
						"audioPath": "cache/audio/en_us/ហៀ​.mp3",
						"audioFileNameInZip": "cache/audio/en_us/%E1%9E%A0%E1%9F%80%E2%80%8B.mp3",
						"audioUrl": "https://s3-ap-southeast-2.amazonaws.com/playlearn/cache/audio/en_us/%E1%9E%A0%E1%9F%80%E2%80%8B.mp3"
					}
				}
				}
				,
				{
				"language": "km",
				"languageUsesArticles": "false",
				"translation": {
					"translation": "ហៀ​",
					"romanisedtranslation": "hiǝ",
					"audio": {
						"audioPath": "cache/audio/km/ហៀ​.mp3",
						"audioFileNameInZip": "cache/audio/km/%E1%9E%A0%E1%9F%80%E2%80%8B.mp3",
						"audioUrl": "https://s3-ap-southeast-2.amazonaws.com/playlearn/cache/audio/km/%E1%9E%A0%E1%9F%80%E2%80%8B.mp3"
					}
				}
				}
		]

		}
		,
		{
		"id": "ហៅ",
		"uniqueid": "ហៅ",
		"cfg-between_char": "false",
		"cfg-note_char": "false",
		"image": {
		},
		"translations":
		[
				{
				"language": "en_us",
				"languageUsesArticles": "false",
				"translation": {
					"translation": "ហៅ",
					"audio": {
						"audioPath": "cache/audio/en_us/ហៅ.mp3",
						"audioFileNameInZip": "cache/audio/en_us/%E1%9E%A0%E1%9F%85.mp3",
						"audioUrl": "https://s3-ap-southeast-2.amazonaws.com/playlearn/cache/audio/en_us/%E1%9E%A0%E1%9F%85.mp3"
					}
				}
				}
				,
				{
				"language": "km",
				"languageUsesArticles": "false",
				"translation": {
					"translation": "ហៅ",
					"romanisedtranslation": "hav",
					"audio": {
						"audioPath": "cache/audio/km/ហៅ.mp3",
						"audioFileNameInZip": "cache/audio/km/%E1%9E%A0%E1%9F%85.mp3",
						"audioUrl": "https://s3-ap-southeast-2.amazonaws.com/playlearn/cache/audio/km/%E1%9E%A0%E1%9F%85.mp3"
					}
				}
				}
		]

		}
		,
		{
		"id": "ឡើ",
		"uniqueid": "ឡើ",
		"cfg-between_char": "false",
		"cfg-note_char": "false",
		"image": {
		},
		"translations":
		[
				{
				"language": "en_us",
				"languageUsesArticles": "false",
				"translation": {
					"translation": "ឡើ",
					"audio": {
						"audioPath": "cache/audio/en_us/ឡើ.mp3",
						"audioFileNameInZip": "cache/audio/en_us/%E1%9E%A1%E1%9E%BE.mp3",
						"audioUrl": "https://s3-ap-southeast-2.amazonaws.com/playlearn/cache/audio/en_us/%E1%9E%A1%E1%9E%BE.mp3"
					}
				}
				}
				,
				{
				"language": "km",
				"languageUsesArticles": "false",
				"translation": {
					"translation": "ឡើ",
					"romanisedtranslation": "laə",
					"audio": {
						"audioPath": "cache/audio/km/ឡើ.mp3",
						"audioFileNameInZip": "cache/audio/km/%E1%9E%A1%E1%9E%BE.mp3",
						"audioUrl": "https://s3-ap-southeast-2.amazonaws.com/playlearn/cache/audio/km/%E1%9E%A1%E1%9E%BE.mp3"
					}
				}
				}
		]

		}
		,
		{
		"id": "ឡៅ",
		"uniqueid": "ឡៅ",
		"cfg-between_char": "false",
		"cfg-note_char": "false",
		"image": {
		},
		"translations":
		[
				{
				"language": "en_us",
				"languageUsesArticles": "false",
				"translation": {
					"translation": "ឡៅ",
					"audio": {
						"audioPath": "cache/audio/en_us/ឡៅ.mp3",
						"audioFileNameInZip": "cache/audio/en_us/%E1%9E%A1%E1%9F%85.mp3",
						"audioUrl": "https://s3-ap-southeast-2.amazonaws.com/playlearn/cache/audio/en_us/%E1%9E%A1%E1%9F%85.mp3"
					}
				}
				}
				,
				{
				"language": "km",
				"languageUsesArticles": "false",
				"translation": {
					"translation": "ឡៅ",
					"romanisedtranslation": "lav",
					"audio": {
						"audioPath": "cache/audio/km/ឡៅ.mp3",
						"audioFileNameInZip": "cache/audio/km/%E1%9E%A1%E1%9F%85.mp3",
						"audioUrl": "https://s3-ap-southeast-2.amazonaws.com/playlearn/cache/audio/km/%E1%9E%A1%E1%9F%85.mp3"
					}
				}
				}
		]

		}
		,
		{
		"id": "អើ",
		"uniqueid": "អើ",
		"cfg-between_char": "false",
		"cfg-note_char": "false",
		"image": {
		},
		"translations":
		[
				{
				"language": "en_us",
				"languageUsesArticles": "false",
				"translation": {
					"translation": "អើ",
					"audio": {
						"audioPath": "cache/audio/en_us/អើ.mp3",
						"audioFileNameInZip": "cache/audio/en_us/%E1%9E%A2%E1%9E%BE.mp3",
						"audioUrl": "https://s3-ap-southeast-2.amazonaws.com/playlearn/cache/audio/en_us/%E1%9E%A2%E1%9E%BE.mp3"
					}
				}
				}
				,
				{
				"language": "km",
				"languageUsesArticles": "false",
				"translation": {
					"translation": "អើ",
					"romanisedtranslation": "ʔaə",
					"audio": {
						"audioPath": "cache/audio/km/អើ.mp3",
						"audioFileNameInZip": "cache/audio/km/%E1%9E%A2%E1%9E%BE.mp3",
						"audioUrl": "https://s3-ap-southeast-2.amazonaws.com/playlearn/cache/audio/km/%E1%9E%A2%E1%9E%BE.mp3"
					}
				}
				}
		]

		}
	]
}